%YAML 1.1
%TAG !u! tag:unity3d.com,2011:
--- !u!29 &1
OcclusionCullingSettings:
  m_ObjectHideFlags: 0
  serializedVersion: 2
  m_OcclusionBakeSettings:
    smallestOccluder: 5
    smallestHole: 0.25
    backfaceThreshold: 100
  m_SceneGUID: 00000000000000000000000000000000
  m_OcclusionCullingData: {fileID: 0}
--- !u!104 &2
RenderSettings:
  m_ObjectHideFlags: 0
  serializedVersion: 9
  m_Fog: 0
  m_FogColor: {r: 0.5, g: 0.5, b: 0.5, a: 1}
  m_FogMode: 3
  m_FogDensity: 0.01
  m_LinearFogStart: 0
  m_LinearFogEnd: 300
  m_AmbientSkyColor: {r: 0.212, g: 0.227, b: 0.259, a: 1}
  m_AmbientEquatorColor: {r: 0.114, g: 0.125, b: 0.133, a: 1}
  m_AmbientGroundColor: {r: 0.047, g: 0.043, b: 0.035, a: 1}
  m_AmbientIntensity: 1
  m_AmbientMode: 0
  m_SubtractiveShadowColor: {r: 0.42, g: 0.478, b: 0.627, a: 1}
  m_SkyboxMaterial: {fileID: 0}
  m_HaloStrength: 0.5
  m_FlareStrength: 1
  m_FlareFadeSpeed: 3
  m_HaloTexture: {fileID: 0}
  m_SpotCookie: {fileID: 10001, guid: 0000000000000000e000000000000000, type: 0}
  m_DefaultReflectionMode: 0
  m_DefaultReflectionResolution: 128
  m_ReflectionBounces: 1
  m_ReflectionIntensity: 1
  m_CustomReflection: {fileID: 0}
  m_Sun: {fileID: 0}
  m_IndirectSpecularColor: {r: 0, g: 0, b: 0, a: 1}
  m_UseRadianceAmbientProbe: 0
--- !u!157 &4
LightmapSettings:
  m_ObjectHideFlags: 0
  serializedVersion: 12
  m_GIWorkflowMode: 0
  m_GISettings:
    serializedVersion: 2
    m_BounceScale: 1
    m_IndirectOutputScale: 1
    m_AlbedoBoost: 1
    m_EnvironmentLightingMode: 0
    m_EnableBakedLightmaps: 1
    m_EnableRealtimeLightmaps: 1
  m_LightmapEditorSettings:
    serializedVersion: 12
    m_Resolution: 2
    m_BakeResolution: 40
    m_AtlasSize: 1024
    m_AO: 0
    m_AOMaxDistance: 1
    m_CompAOExponent: 0
    m_CompAOExponentDirect: 0
    m_ExtractAmbientOcclusion: 0
    m_Padding: 2
    m_LightmapParameters: {fileID: 0}
    m_LightmapsBakeMode: 1
    m_TextureCompression: 1
    m_FinalGather: 0
    m_FinalGatherFiltering: 1
    m_FinalGatherRayCount: 1024
    m_ReflectionCompression: 2
    m_MixedBakeMode: 1
    m_BakeBackend: 0
    m_PVRSampling: 1
    m_PVRDirectSampleCount: 32
    m_PVRSampleCount: 512
    m_PVRBounces: 2
    m_PVREnvironmentSampleCount: 512
    m_PVREnvironmentReferencePointCount: 2048
    m_PVRFilteringMode: 0
    m_PVRDenoiserTypeDirect: 0
    m_PVRDenoiserTypeIndirect: 0
    m_PVRDenoiserTypeAO: 0
    m_PVRFilterTypeDirect: 0
    m_PVRFilterTypeIndirect: 0
    m_PVRFilterTypeAO: 0
    m_PVREnvironmentMIS: 0
    m_PVRCulling: 1
    m_PVRFilteringGaussRadiusDirect: 1
    m_PVRFilteringGaussRadiusIndirect: 5
    m_PVRFilteringGaussRadiusAO: 2
    m_PVRFilteringAtrousPositionSigmaDirect: 0.5
    m_PVRFilteringAtrousPositionSigmaIndirect: 2
    m_PVRFilteringAtrousPositionSigmaAO: 1
    m_ExportTrainingData: 0
    m_TrainingDataDestination: TrainingData
    m_LightProbeSampleCountMultiplier: 4
  m_LightingDataAsset: {fileID: 0}
  m_LightingSettings: {fileID: 4890085278179872738, guid: 420e36638ee84cd41b6419acd275bb22, type: 2}
--- !u!196 &5
NavMeshSettings:
  serializedVersion: 2
  m_ObjectHideFlags: 0
  m_BuildSettings:
    serializedVersion: 2
    agentTypeID: 0
    agentRadius: 0.5
    agentHeight: 2
    agentSlope: 45
    agentClimb: 0.4
    ledgeDropHeight: 0
    maxJumpAcrossDistance: 0
    minRegionArea: 2
    manualCellSize: 0
    cellSize: 0.16666667
    manualTileSize: 0
    tileSize: 256
    accuratePlacement: 0
    maxJobWorkers: 0
    preserveTilesOutsideBounds: 0
    debug:
      m_Flags: 0
  m_NavMeshData: {fileID: 0}
--- !u!1001 &19143124
PrefabInstance:
  m_ObjectHideFlags: 0
  serializedVersion: 2
  m_Modification:
    m_TransformParent: {fileID: 0}
    m_Modifications:
    - target: {fileID: 486404, guid: 26e950ddae2da3a4581a7692739c06fc, type: 3}
      propertyPath: m_LocalPosition.x
      value: -1.74
      objectReference: {fileID: 0}
    - target: {fileID: 486404, guid: 26e950ddae2da3a4581a7692739c06fc, type: 3}
      propertyPath: m_LocalPosition.y
      value: -1.12
      objectReference: {fileID: 0}
    - target: {fileID: 486404, guid: 26e950ddae2da3a4581a7692739c06fc, type: 3}
      propertyPath: m_LocalPosition.z
      value: -2
      objectReference: {fileID: 0}
    - target: {fileID: 486404, guid: 26e950ddae2da3a4581a7692739c06fc, type: 3}
      propertyPath: m_LocalRotation.x
      value: -0.00058239256
      objectReference: {fileID: 0}
    - target: {fileID: 486404, guid: 26e950ddae2da3a4581a7692739c06fc, type: 3}
      propertyPath: m_LocalRotation.y
      value: -0.059008684
      objectReference: {fileID: 0}
    - target: {fileID: 486404, guid: 26e950ddae2da3a4581a7692739c06fc, type: 3}
      propertyPath: m_LocalRotation.z
      value: 0.13517697
      objectReference: {fileID: 0}
    - target: {fileID: 486404, guid: 26e950ddae2da3a4581a7692739c06fc, type: 3}
      propertyPath: m_LocalRotation.w
      value: 0.98906267
      objectReference: {fileID: 0}
    - target: {fileID: 486404, guid: 26e950ddae2da3a4581a7692739c06fc, type: 3}
      propertyPath: m_RootOrder
      value: 3
      objectReference: {fileID: 0}
    m_RemovedComponents: []
  m_SourcePrefab: {fileID: 100100000, guid: 26e950ddae2da3a4581a7692739c06fc, type: 3}
--- !u!1001 &165494223
PrefabInstance:
  m_ObjectHideFlags: 0
  serializedVersion: 2
  m_Modification:
    m_TransformParent: {fileID: 0}
    m_Modifications:
    - target: {fileID: 430450, guid: 91a2ff99c55e0ff40873274bac746b14, type: 3}
      propertyPath: m_LocalPosition.x
      value: -7.22
      objectReference: {fileID: 0}
    - target: {fileID: 430450, guid: 91a2ff99c55e0ff40873274bac746b14, type: 3}
      propertyPath: m_LocalPosition.y
      value: 0
      objectReference: {fileID: 0}
    - target: {fileID: 430450, guid: 91a2ff99c55e0ff40873274bac746b14, type: 3}
      propertyPath: m_LocalPosition.z
      value: -11.33
      objectReference: {fileID: 0}
    - target: {fileID: 430450, guid: 91a2ff99c55e0ff40873274bac746b14, type: 3}
      propertyPath: m_LocalRotation.x
      value: 0
      objectReference: {fileID: 0}
    - target: {fileID: 430450, guid: 91a2ff99c55e0ff40873274bac746b14, type: 3}
      propertyPath: m_LocalRotation.y
      value: 0
      objectReference: {fileID: 0}
    - target: {fileID: 430450, guid: 91a2ff99c55e0ff40873274bac746b14, type: 3}
      propertyPath: m_LocalRotation.z
      value: 0
      objectReference: {fileID: 0}
    - target: {fileID: 430450, guid: 91a2ff99c55e0ff40873274bac746b14, type: 3}
      propertyPath: m_LocalRotation.w
      value: 1
      objectReference: {fileID: 0}
    - target: {fileID: 430450, guid: 91a2ff99c55e0ff40873274bac746b14, type: 3}
      propertyPath: m_RootOrder
      value: 2
      objectReference: {fileID: 0}
    m_RemovedComponents: []
  m_SourcePrefab: {fileID: 100100000, guid: 91a2ff99c55e0ff40873274bac746b14, type: 3}
--- !u!1001 &169287543
PrefabInstance:
  m_ObjectHideFlags: 0
  serializedVersion: 2
  m_Modification:
    m_TransformParent: {fileID: 0}
    m_Modifications:
    - target: {fileID: 462476, guid: 3c56b843246341843a3e1dd95242c6c0, type: 3}
      propertyPath: m_LocalPosition.x
      value: 0
      objectReference: {fileID: 0}
    - target: {fileID: 462476, guid: 3c56b843246341843a3e1dd95242c6c0, type: 3}
      propertyPath: m_LocalPosition.y
      value: 0
      objectReference: {fileID: 0}
    - target: {fileID: 462476, guid: 3c56b843246341843a3e1dd95242c6c0, type: 3}
      propertyPath: m_LocalPosition.z
      value: 0
      objectReference: {fileID: 0}
    - target: {fileID: 462476, guid: 3c56b843246341843a3e1dd95242c6c0, type: 3}
      propertyPath: m_LocalRotation.x
      value: 0
      objectReference: {fileID: 0}
    - target: {fileID: 462476, guid: 3c56b843246341843a3e1dd95242c6c0, type: 3}
      propertyPath: m_LocalRotation.y
      value: 0
      objectReference: {fileID: 0}
    - target: {fileID: 462476, guid: 3c56b843246341843a3e1dd95242c6c0, type: 3}
      propertyPath: m_LocalRotation.z
      value: 0
      objectReference: {fileID: 0}
    - target: {fileID: 462476, guid: 3c56b843246341843a3e1dd95242c6c0, type: 3}
      propertyPath: m_LocalRotation.w
      value: 1
      objectReference: {fileID: 0}
    - target: {fileID: 462476, guid: 3c56b843246341843a3e1dd95242c6c0, type: 3}
      propertyPath: m_RootOrder
      value: 5
      objectReference: {fileID: 0}
    m_RemovedComponents: []
  m_SourcePrefab: {fileID: 100100000, guid: 3c56b843246341843a3e1dd95242c6c0, type: 3}
--- !u!1001 &311568998
PrefabInstance:
  m_ObjectHideFlags: 0
  serializedVersion: 2
  m_Modification:
    m_TransformParent: {fileID: 0}
    m_Modifications:
    - target: {fileID: 109258, guid: c493d3d03cbce404cb4426d18901b4a2, type: 3}
      propertyPath: m_Name
      value: Nebula_Medium 1
      objectReference: {fileID: 0}
    - target: {fileID: 435914, guid: c493d3d03cbce404cb4426d18901b4a2, type: 3}
      propertyPath: m_LocalPosition.x
      value: 0
      objectReference: {fileID: 0}
    - target: {fileID: 435914, guid: c493d3d03cbce404cb4426d18901b4a2, type: 3}
      propertyPath: m_LocalPosition.y
      value: 0
      objectReference: {fileID: 0}
    - target: {fileID: 435914, guid: c493d3d03cbce404cb4426d18901b4a2, type: 3}
      propertyPath: m_LocalPosition.z
      value: 0
      objectReference: {fileID: 0}
    - target: {fileID: 435914, guid: c493d3d03cbce404cb4426d18901b4a2, type: 3}
      propertyPath: m_LocalRotation.x
      value: 0.79106486
      objectReference: {fileID: 0}
    - target: {fileID: 435914, guid: c493d3d03cbce404cb4426d18901b4a2, type: 3}
      propertyPath: m_LocalRotation.y
      value: -0.519634
      objectReference: {fileID: 0}
    - target: {fileID: 435914, guid: c493d3d03cbce404cb4426d18901b4a2, type: 3}
      propertyPath: m_LocalRotation.z
      value: 0.06049177
      objectReference: {fileID: 0}
    - target: {fileID: 435914, guid: c493d3d03cbce404cb4426d18901b4a2, type: 3}
      propertyPath: m_LocalRotation.w
      value: 0.31707692
      objectReference: {fileID: 0}
    - target: {fileID: 435914, guid: c493d3d03cbce404cb4426d18901b4a2, type: 3}
      propertyPath: m_RootOrder
      value: 10
      objectReference: {fileID: 0}
    - target: {fileID: 2395338, guid: c493d3d03cbce404cb4426d18901b4a2, type: 3}
      propertyPath: m_Materials.Array.data[0]
      value: 
      objectReference: {fileID: 2100000, guid: ef53862a251c3ad4d95b2b376608ee3f, type: 2}
    m_RemovedComponents: []
  m_SourcePrefab: {fileID: 100100000, guid: c493d3d03cbce404cb4426d18901b4a2, type: 3}
--- !u!1001 &599626775
PrefabInstance:
  m_ObjectHideFlags: 0
  serializedVersion: 2
  m_Modification:
    m_TransformParent: {fileID: 0}
    m_Modifications:
    - target: {fileID: 8656794253012323463, guid: c2336b6c8d72840478491428c4ea0b34, type: 3}
      propertyPath: m_LocalPosition.x
      value: -7.3
      objectReference: {fileID: 0}
    - target: {fileID: 8656794253012323463, guid: c2336b6c8d72840478491428c4ea0b34, type: 3}
      propertyPath: m_LocalPosition.y
      value: 0
      objectReference: {fileID: 0}
    - target: {fileID: 8656794253012323463, guid: c2336b6c8d72840478491428c4ea0b34, type: 3}
      propertyPath: m_LocalPosition.z
      value: -13.99
      objectReference: {fileID: 0}
    - target: {fileID: 8656794253012323463, guid: c2336b6c8d72840478491428c4ea0b34, type: 3}
      propertyPath: m_LocalRotation.x
      value: 0
      objectReference: {fileID: 0}
    - target: {fileID: 8656794253012323463, guid: c2336b6c8d72840478491428c4ea0b34, type: 3}
      propertyPath: m_LocalRotation.y
      value: 0
      objectReference: {fileID: 0}
    - target: {fileID: 8656794253012323463, guid: c2336b6c8d72840478491428c4ea0b34, type: 3}
      propertyPath: m_LocalRotation.z
      value: 0
      objectReference: {fileID: 0}
    - target: {fileID: 8656794253012323463, guid: c2336b6c8d72840478491428c4ea0b34, type: 3}
      propertyPath: m_LocalRotation.w
      value: 1
      objectReference: {fileID: 0}
    - target: {fileID: 8656794253012323463, guid: c2336b6c8d72840478491428c4ea0b34, type: 3}
      propertyPath: m_RootOrder
      value: 1
      objectReference: {fileID: 0}
    - target: {fileID: 8656794253012323463, guid: c2336b6c8d72840478491428c4ea0b34, type: 3}
      propertyPath: m_LocalEulerAnglesHint.x
      value: 0
      objectReference: {fileID: 0}
    - target: {fileID: 8656794253012323463, guid: c2336b6c8d72840478491428c4ea0b34, type: 3}
      propertyPath: m_LocalEulerAnglesHint.y
      value: 0
      objectReference: {fileID: 0}
    - target: {fileID: 8656794253012323463, guid: c2336b6c8d72840478491428c4ea0b34, type: 3}
      propertyPath: m_LocalEulerAnglesHint.z
      value: 0
      objectReference: {fileID: 0}
    - target: {fileID: 8656794253012323514, guid: c2336b6c8d72840478491428c4ea0b34, type: 3}
      propertyPath: m_Name
      value: Main Camera
      objectReference: {fileID: 0}
    m_RemovedComponents: []
  m_SourcePrefab: {fileID: 100100000, guid: c2336b6c8d72840478491428c4ea0b34, type: 3}
--- !u!1001 &616345371
PrefabInstance:
  m_ObjectHideFlags: 0
  serializedVersion: 2
  m_Modification:
    m_TransformParent: {fileID: 0}
    m_Modifications:
    - target: {fileID: 176012, guid: 6eb52968ab2779d4db7990fe0f754609, type: 3}
      propertyPath: m_Name
      value: Nebula_Large 1
      objectReference: {fileID: 0}
    - target: {fileID: 448446, guid: 6eb52968ab2779d4db7990fe0f754609, type: 3}
      propertyPath: m_LocalPosition.x
      value: 0
      objectReference: {fileID: 0}
    - target: {fileID: 448446, guid: 6eb52968ab2779d4db7990fe0f754609, type: 3}
      propertyPath: m_LocalPosition.y
      value: 0
      objectReference: {fileID: 0}
    - target: {fileID: 448446, guid: 6eb52968ab2779d4db7990fe0f754609, type: 3}
      propertyPath: m_LocalPosition.z
      value: 0
      objectReference: {fileID: 0}
    - target: {fileID: 448446, guid: 6eb52968ab2779d4db7990fe0f754609, type: 3}
      propertyPath: m_LocalRotation.x
      value: 0.77949905
      objectReference: {fileID: 0}
    - target: {fileID: 448446, guid: 6eb52968ab2779d4db7990fe0f754609, type: 3}
      propertyPath: m_LocalRotation.y
      value: 0
      objectReference: {fileID: 0}
    - target: {fileID: 448446, guid: 6eb52968ab2779d4db7990fe0f754609, type: 3}
      propertyPath: m_LocalRotation.z
      value: 0
      objectReference: {fileID: 0}
    - target: {fileID: 448446, guid: 6eb52968ab2779d4db7990fe0f754609, type: 3}
      propertyPath: m_LocalRotation.w
      value: 0.62640345
      objectReference: {fileID: 0}
    - target: {fileID: 448446, guid: 6eb52968ab2779d4db7990fe0f754609, type: 3}
      propertyPath: m_RootOrder
      value: 4
      objectReference: {fileID: 0}
    m_RemovedComponents: []
  m_SourcePrefab: {fileID: 100100000, guid: 6eb52968ab2779d4db7990fe0f754609, type: 3}
--- !u!1001 &673089294
PrefabInstance:
  m_ObjectHideFlags: 0
  serializedVersion: 2
  m_Modification:
    m_TransformParent: {fileID: 0}
    m_Modifications:
    - target: {fileID: 442902, guid: d0ba74bc4033d3748a26e8aed52fb490, type: 3}
      propertyPath: m_LocalPosition.x
      value: -1.74
      objectReference: {fileID: 0}
    - target: {fileID: 442902, guid: d0ba74bc4033d3748a26e8aed52fb490, type: 3}
      propertyPath: m_LocalPosition.y
      value: -1.12
      objectReference: {fileID: 0}
    - target: {fileID: 442902, guid: d0ba74bc4033d3748a26e8aed52fb490, type: 3}
      propertyPath: m_LocalPosition.z
      value: -2
      objectReference: {fileID: 0}
    - target: {fileID: 442902, guid: d0ba74bc4033d3748a26e8aed52fb490, type: 3}
      propertyPath: m_LocalRotation.x
      value: -0.00058239256
      objectReference: {fileID: 0}
    - target: {fileID: 442902, guid: d0ba74bc4033d3748a26e8aed52fb490, type: 3}
      propertyPath: m_LocalRotation.y
      value: -0.059008684
      objectReference: {fileID: 0}
    - target: {fileID: 442902, guid: d0ba74bc4033d3748a26e8aed52fb490, type: 3}
      propertyPath: m_LocalRotation.z
      value: 0.13517697
      objectReference: {fileID: 0}
    - target: {fileID: 442902, guid: d0ba74bc4033d3748a26e8aed52fb490, type: 3}
      propertyPath: m_LocalRotation.w
      value: 0.98906267
      objectReference: {fileID: 0}
    - target: {fileID: 442902, guid: d0ba74bc4033d3748a26e8aed52fb490, type: 3}
      propertyPath: m_RootOrder
      value: 6
      objectReference: {fileID: 0}
    m_RemovedComponents: []
  m_SourcePrefab: {fileID: 100100000, guid: d0ba74bc4033d3748a26e8aed52fb490, type: 3}
--- !u!1001 &727468401
PrefabInstance:
  m_ObjectHideFlags: 0
  serializedVersion: 2
  m_Modification:
    m_TransformParent: {fileID: 0}
    m_Modifications:
    - target: {fileID: 499520, guid: b696a85a1bdab3d4096cfcbcc7e4fe38, type: 3}
      propertyPath: m_LocalPosition.x
      value: 0
      objectReference: {fileID: 0}
    - target: {fileID: 499520, guid: b696a85a1bdab3d4096cfcbcc7e4fe38, type: 3}
      propertyPath: m_LocalPosition.y
      value: 0
      objectReference: {fileID: 0}
    - target: {fileID: 499520, guid: b696a85a1bdab3d4096cfcbcc7e4fe38, type: 3}
      propertyPath: m_LocalPosition.z
      value: 0
      objectReference: {fileID: 0}
    - target: {fileID: 499520, guid: b696a85a1bdab3d4096cfcbcc7e4fe38, type: 3}
      propertyPath: m_LocalRotation.x
      value: 0.47823483
      objectReference: {fileID: 0}
    - target: {fileID: 499520, guid: b696a85a1bdab3d4096cfcbcc7e4fe38, type: 3}
      propertyPath: m_LocalRotation.y
      value: -0.24249993
      objectReference: {fileID: 0}
    - target: {fileID: 499520, guid: b696a85a1bdab3d4096cfcbcc7e4fe38, type: 3}
      propertyPath: m_LocalRotation.z
      value: 0.29078278
      objectReference: {fileID: 0}
    - target: {fileID: 499520, guid: b696a85a1bdab3d4096cfcbcc7e4fe38, type: 3}
      propertyPath: m_LocalRotation.w
      value: 0.79242074
      objectReference: {fileID: 0}
    - target: {fileID: 499520, guid: b696a85a1bdab3d4096cfcbcc7e4fe38, type: 3}
      propertyPath: m_RootOrder
      value: 7
      objectReference: {fileID: 0}
    - target: {fileID: 2388018, guid: b696a85a1bdab3d4096cfcbcc7e4fe38, type: 3}
      propertyPath: m_Materials.Array.data[0]
      value: 
      objectReference: {fileID: 2100000, guid: 55af22e36a4cd824dacf3a882b653efc, type: 2}
    m_RemovedComponents: []
  m_SourcePrefab: {fileID: 100100000, guid: b696a85a1bdab3d4096cfcbcc7e4fe38, type: 3}
--- !u!1 &985038705
GameObject:
  m_ObjectHideFlags: 0
  m_CorrespondingSourceObject: {fileID: 0}
  m_PrefabInstance: {fileID: 0}
  m_PrefabAsset: {fileID: 0}
  serializedVersion: 6
  m_Component:
  - component: {fileID: 985038707}
  - component: {fileID: 985038706}
  m_Layer: 0
  m_Name: Directional Light
  m_TagString: Untagged
  m_Icon: {fileID: 0}
  m_NavMeshLayer: 0
  m_StaticEditorFlags: 0
  m_IsActive: 1
--- !u!108 &985038706
Light:
  m_ObjectHideFlags: 0
  m_CorrespondingSourceObject: {fileID: 0}
  m_PrefabInstance: {fileID: 0}
  m_PrefabAsset: {fileID: 0}
  m_GameObject: {fileID: 985038705}
  m_Enabled: 1
  serializedVersion: 10
  m_Type: 1
  m_Shape: 0
  m_Color: {r: 1, g: 0.95686275, b: 0.8392157, a: 1}
  m_Intensity: 1
  m_Range: 10
  m_SpotAngle: 30
  m_InnerSpotAngle: 21.80208
  m_CookieSize: 10
  m_Shadows:
    m_Type: 2
    m_Resolution: -1
    m_CustomResolution: -1
    m_Strength: 1
    m_Bias: 0.05
    m_NormalBias: 0.4
    m_NearPlane: 0.2
    m_CullingMatrixOverride:
      e00: 1
      e01: 0
      e02: 0
      e03: 0
      e10: 0
      e11: 1
      e12: 0
      e13: 0
      e20: 0
      e21: 0
      e22: 1
      e23: 0
      e30: 0
      e31: 0
      e32: 0
      e33: 1
    m_UseCullingMatrixOverride: 0
  m_Cookie: {fileID: 0}
  m_DrawHalo: 0
  m_Flare: {fileID: 12100000, guid: 54fbbf098d116effa00081aba8ad6659, type: 2}
  m_RenderMode: 0
  m_CullingMask:
    serializedVersion: 2
    m_Bits: 4294967295
  m_RenderingLayerMask: 1
  m_Lightmapping: 4
  m_LightShadowCasterMode: 0
  m_AreaSize: {x: 1, y: 1}
  m_BounceIntensity: 1
  m_ColorTemperature: 6570
  m_UseColorTemperature: 0
  m_BoundingSphereOverride: {x: 0, y: 0, z: 0, w: 0}
  m_UseBoundingSphereOverride: 0
  m_ShadowRadius: 0
  m_ShadowAngle: 0
--- !u!4 &985038707
Transform:
  m_ObjectHideFlags: 0
  m_CorrespondingSourceObject: {fileID: 0}
  m_PrefabInstance: {fileID: 0}
  m_PrefabAsset: {fileID: 0}
  m_GameObject: {fileID: 985038705}
  m_LocalRotation: {x: -0.017518658, y: -0.8105566, z: 0.20074104, w: -0.54990387}
  m_LocalPosition: {x: -54.7, y: 20.6, z: 42.5}
  m_LocalScale: {x: 1, y: 1, z: 1}
  m_Children: []
  m_Father: {fileID: 0}
  m_RootOrder: 0
  m_LocalEulerAnglesHint: {x: 0, y: 0, z: 0}
--- !u!1001 &1034498419
PrefabInstance:
  m_ObjectHideFlags: 0
  serializedVersion: 2
  m_Modification:
    m_TransformParent: {fileID: 0}
    m_Modifications:
    - target: {fileID: 479976, guid: 35415bd24cbf1304fb8f04ba7d00afb2, type: 3}
      propertyPath: m_LocalPosition.x
      value: 0
      objectReference: {fileID: 0}
    - target: {fileID: 479976, guid: 35415bd24cbf1304fb8f04ba7d00afb2, type: 3}
      propertyPath: m_LocalPosition.y
      value: 0
      objectReference: {fileID: 0}
    - target: {fileID: 479976, guid: 35415bd24cbf1304fb8f04ba7d00afb2, type: 3}
      propertyPath: m_LocalPosition.z
      value: 0
      objectReference: {fileID: 0}
    - target: {fileID: 479976, guid: 35415bd24cbf1304fb8f04ba7d00afb2, type: 3}
      propertyPath: m_LocalRotation.x
      value: 0.8080532
      objectReference: {fileID: 0}
    - target: {fileID: 479976, guid: 35415bd24cbf1304fb8f04ba7d00afb2, type: 3}
      propertyPath: m_LocalRotation.y
      value: 0.3239793
      objectReference: {fileID: 0}
    - target: {fileID: 479976, guid: 35415bd24cbf1304fb8f04ba7d00afb2, type: 3}
      propertyPath: m_LocalRotation.z
      value: -0.121798515
      objectReference: {fileID: 0}
    - target: {fileID: 479976, guid: 35415bd24cbf1304fb8f04ba7d00afb2, type: 3}
      propertyPath: m_LocalRotation.w
      value: 0.4767101
      objectReference: {fileID: 0}
    - target: {fileID: 479976, guid: 35415bd24cbf1304fb8f04ba7d00afb2, type: 3}
      propertyPath: m_RootOrder
      value: 8
      objectReference: {fileID: 0}
    m_RemovedComponents: []
  m_SourcePrefab: {fileID: 100100000, guid: 35415bd24cbf1304fb8f04ba7d00afb2, type: 3}
--- !u!1001 &1095897608
PrefabInstance:
  m_ObjectHideFlags: 0
  serializedVersion: 2
  m_Modification:
    m_TransformParent: {fileID: 0}
    m_Modifications:
    - target: {fileID: 109258, guid: c493d3d03cbce404cb4426d18901b4a2, type: 3}
      propertyPath: m_Name
      value: Nebula_Medium 3
      objectReference: {fileID: 0}
    - target: {fileID: 435914, guid: c493d3d03cbce404cb4426d18901b4a2, type: 3}
      propertyPath: m_LocalPosition.x
      value: 0
      objectReference: {fileID: 0}
    - target: {fileID: 435914, guid: c493d3d03cbce404cb4426d18901b4a2, type: 3}
      propertyPath: m_LocalPosition.y
      value: 0
      objectReference: {fileID: 0}
    - target: {fileID: 435914, guid: c493d3d03cbce404cb4426d18901b4a2, type: 3}
      propertyPath: m_LocalPosition.z
      value: 0
      objectReference: {fileID: 0}
    - target: {fileID: 435914, guid: c493d3d03cbce404cb4426d18901b4a2, type: 3}
      propertyPath: m_LocalRotation.x
      value: 0.78671575
      objectReference: {fileID: 0}
    - target: {fileID: 435914, guid: c493d3d03cbce404cb4426d18901b4a2, type: 3}
      propertyPath: m_LocalRotation.y
      value: -0.173646
      objectReference: {fileID: 0}
    - target: {fileID: 435914, guid: c493d3d03cbce404cb4426d18901b4a2, type: 3}
      propertyPath: m_LocalRotation.z
      value: 0.22318622
      objectReference: {fileID: 0}
    - target: {fileID: 435914, guid: c493d3d03cbce404cb4426d18901b4a2, type: 3}
      propertyPath: m_LocalRotation.w
      value: 0.54873806
      objectReference: {fileID: 0}
    - target: {fileID: 435914, guid: c493d3d03cbce404cb4426d18901b4a2, type: 3}
      propertyPath: m_RootOrder
      value: 12
      objectReference: {fileID: 0}
    m_RemovedComponents: []
  m_SourcePrefab: {fileID: 100100000, guid: c493d3d03cbce404cb4426d18901b4a2, type: 3}
--- !u!1001 &1615356770
PrefabInstance:
  m_ObjectHideFlags: 0
  serializedVersion: 2
  m_Modification:
    m_TransformParent: {fileID: 0}
    m_Modifications:
    - target: {fileID: 448446, guid: 6eb52968ab2779d4db7990fe0f754609, type: 3}
      propertyPath: m_LocalPosition.x
      value: 0
      objectReference: {fileID: 0}
    - target: {fileID: 448446, guid: 6eb52968ab2779d4db7990fe0f754609, type: 3}
      propertyPath: m_LocalPosition.y
      value: 0
      objectReference: {fileID: 0}
    - target: {fileID: 448446, guid: 6eb52968ab2779d4db7990fe0f754609, type: 3}
      propertyPath: m_LocalPosition.z
      value: 0
      objectReference: {fileID: 0}
    - target: {fileID: 448446, guid: 6eb52968ab2779d4db7990fe0f754609, type: 3}
      propertyPath: m_LocalRotation.x
      value: 0.53648204
      objectReference: {fileID: 0}
    - target: {fileID: 448446, guid: 6eb52968ab2779d4db7990fe0f754609, type: 3}
      propertyPath: m_LocalRotation.y
      value: 0.088045366
      objectReference: {fileID: 0}
    - target: {fileID: 448446, guid: 6eb52968ab2779d4db7990fe0f754609, type: 3}
      propertyPath: m_LocalRotation.z
      value: -0.07168019
      objectReference: {fileID: 0}
    - target: {fileID: 448446, guid: 6eb52968ab2779d4db7990fe0f754609, type: 3}
      propertyPath: m_LocalRotation.w
      value: 0.8362399
      objectReference: {fileID: 0}
    - target: {fileID: 448446, guid: 6eb52968ab2779d4db7990fe0f754609, type: 3}
      propertyPath: m_RootOrder
      value: 9
      objectReference: {fileID: 0}
    - target: {fileID: 2394668, guid: 6eb52968ab2779d4db7990fe0f754609, type: 3}
      propertyPath: m_Materials.Array.data[0]
      value: 
      objectReference: {fileID: 2100000, guid: ef53862a251c3ad4d95b2b376608ee3f, type: 2}
    m_RemovedComponents: []
  m_SourcePrefab: {fileID: 100100000, guid: 6eb52968ab2779d4db7990fe0f754609, type: 3}
--- !u!1001 &2013919301
PrefabInstance:
  m_ObjectHideFlags: 0
  serializedVersion: 2
  m_Modification:
    m_TransformParent: {fileID: 0}
    m_Modifications:
    - target: {fileID: 488912, guid: a0bba650a2f3bc74296aad288c08d469, type: 3}
      propertyPath: m_LocalPosition.x
      value: 10.6
      objectReference: {fileID: 0}
    - target: {fileID: 488912, guid: a0bba650a2f3bc74296aad288c08d469, type: 3}
      propertyPath: m_LocalPosition.y
      value: 61.6
      objectReference: {fileID: 0}
    - target: {fileID: 488912, guid: a0bba650a2f3bc74296aad288c08d469, type: 3}
      propertyPath: m_LocalPosition.z
      value: -14.1
      objectReference: {fileID: 0}
    - target: {fileID: 488912, guid: a0bba650a2f3bc74296aad288c08d469, type: 3}
      propertyPath: m_LocalRotation.x
      value: 0.8707545
      objectReference: {fileID: 0}
    - target: {fileID: 488912, guid: a0bba650a2f3bc74296aad288c08d469, type: 3}
      propertyPath: m_LocalRotation.y
      value: 0.103788786
      objectReference: {fileID: 0}
    - target: {fileID: 488912, guid: a0bba650a2f3bc74296aad288c08d469, type: 3}
      propertyPath: m_LocalRotation.z
      value: -0.10279137
      objectReference: {fileID: 0}
    - target: {fileID: 488912, guid: a0bba650a2f3bc74296aad288c08d469, type: 3}
      propertyPath: m_LocalRotation.w
      value: 0.46951956
      objectReference: {fileID: 0}
    - target: {fileID: 488912, guid: a0bba650a2f3bc74296aad288c08d469, type: 3}
      propertyPath: m_RootOrder
      value: 11
      objectReference: {fileID: 0}
    - target: {fileID: 2390014, guid: a0bba650a2f3bc74296aad288c08d469, type: 3}
      propertyPath: m_Materials.Array.data[0]
      value: 
      objectReference: {fileID: 2100000, guid: 0281bf8d7621d6c40a73e84e341e80b3, type: 2}
    m_RemovedComponents: []
  m_SourcePrefab: {fileID: 100100000, guid: a0bba650a2f3bc74296aad288c08d469, type: 3}
