%YAML 1.1
%TAG !u! tag:unity3d.com,2011:
--- !u!29 &1
OcclusionCullingSettings:
  m_ObjectHideFlags: 0
  serializedVersion: 2
  m_OcclusionBakeSettings:
    smallestOccluder: 5
    smallestHole: 0.25
    backfaceThreshold: 100
  m_SceneGUID: 00000000000000000000000000000000
  m_OcclusionCullingData: {fileID: 0}
--- !u!104 &2
RenderSettings:
  m_ObjectHideFlags: 0
  serializedVersion: 9
  m_Fog: 0
  m_FogColor: {r: 0.75735295, g: 1, b: 0.9497972, a: 1}
  m_FogMode: 3
  m_FogDensity: 0.01
  m_LinearFogStart: 0
  m_LinearFogEnd: 300
  m_AmbientSkyColor: {r: 0.75559294, g: 0.67052335, b: 0.8602941, a: 1}
  m_AmbientEquatorColor: {r: 0.114, g: 0.125, b: 0.133, a: 1}
  m_AmbientGroundColor: {r: 0.047, g: 0.043, b: 0.035, a: 1}
  m_AmbientIntensity: 1
  m_AmbientMode: 3
  m_SubtractiveShadowColor: {r: 0.42, g: 0.478, b: 0.627, a: 1}
  m_SkyboxMaterial: {fileID: 10304, guid: 0000000000000000f000000000000000, type: 0}
  m_HaloStrength: 0.5
  m_FlareStrength: 1
  m_FlareFadeSpeed: 3
  m_HaloTexture: {fileID: 0}
  m_SpotCookie: {fileID: 10001, guid: 0000000000000000e000000000000000, type: 0}
  m_DefaultReflectionMode: 0
  m_DefaultReflectionResolution: 128
  m_ReflectionBounces: 1
  m_ReflectionIntensity: 1
  m_CustomReflection: {fileID: 0}
  m_Sun: {fileID: 0}
  m_IndirectSpecularColor: {r: 0, g: 0, b: 0, a: 1}
  m_UseRadianceAmbientProbe: 0
--- !u!157 &3
LightmapSettings:
  m_ObjectHideFlags: 0
  serializedVersion: 12
  m_GIWorkflowMode: 0
  m_GISettings:
    serializedVersion: 2
    m_BounceScale: 1
    m_IndirectOutputScale: 1
    m_AlbedoBoost: 1
    m_EnvironmentLightingMode: 0
    m_EnableBakedLightmaps: 0
    m_EnableRealtimeLightmaps: 1
  m_LightmapEditorSettings:
    serializedVersion: 12
    m_Resolution: 2
    m_BakeResolution: 40
    m_AtlasSize: 1024
    m_AO: 0
    m_AOMaxDistance: 1
    m_CompAOExponent: 1
    m_CompAOExponentDirect: 0
    m_ExtractAmbientOcclusion: 0
    m_Padding: 2
    m_LightmapParameters: {fileID: 0}
    m_LightmapsBakeMode: 1
    m_TextureCompression: 1
    m_FinalGather: 0
    m_FinalGatherFiltering: 1
    m_FinalGatherRayCount: 256
    m_ReflectionCompression: 2
    m_MixedBakeMode: 2
    m_BakeBackend: 0
    m_PVRSampling: 1
    m_PVRDirectSampleCount: 32
    m_PVRSampleCount: 500
    m_PVRBounces: 2
    m_PVREnvironmentSampleCount: 500
    m_PVREnvironmentReferencePointCount: 2048
    m_PVRFilteringMode: 2
    m_PVRDenoiserTypeDirect: 0
    m_PVRDenoiserTypeIndirect: 0
    m_PVRDenoiserTypeAO: 0
    m_PVRFilterTypeDirect: 0
    m_PVRFilterTypeIndirect: 0
    m_PVRFilterTypeAO: 0
    m_PVREnvironmentMIS: 0
    m_PVRCulling: 1
    m_PVRFilteringGaussRadiusDirect: 1
    m_PVRFilteringGaussRadiusIndirect: 5
    m_PVRFilteringGaussRadiusAO: 2
    m_PVRFilteringAtrousPositionSigmaDirect: 0.5
    m_PVRFilteringAtrousPositionSigmaIndirect: 2
    m_PVRFilteringAtrousPositionSigmaAO: 1
    m_ExportTrainingData: 0
    m_TrainingDataDestination: TrainingData
    m_LightProbeSampleCountMultiplier: 4
  m_LightingDataAsset: {fileID: 0}
  m_LightingSettings: {fileID: 4890085278179872738, guid: 108a970efa01dcc468cbb6be46f33f57, type: 2}
--- !u!196 &4
NavMeshSettings:
  serializedVersion: 2
  m_ObjectHideFlags: 0
  m_BuildSettings:
    serializedVersion: 2
    agentTypeID: 0
    agentRadius: 0.5
    agentHeight: 2
    agentSlope: 45
    agentClimb: 0.4
    ledgeDropHeight: 0
    maxJumpAcrossDistance: 0
    minRegionArea: 2
    manualCellSize: 0
    cellSize: 0.16666667
    manualTileSize: 0
    tileSize: 256
    accuratePlacement: 0
    maxJobWorkers: 0
    preserveTilesOutsideBounds: 0
    debug:
      m_Flags: 0
  m_NavMeshData: {fileID: 0}
--- !u!1001 &65286553
PrefabInstance:
  m_ObjectHideFlags: 0
  serializedVersion: 2
  m_Modification:
    m_TransformParent: {fileID: 1503443544}
    m_Modifications:
    - target: {fileID: 1785245269946184, guid: fb3ec1f990e0834459e20e7be2459d63, type: 3}
      propertyPath: m_StaticEditorFlags
      value: 4294967295
      objectReference: {fileID: 0}
    - target: {fileID: 4924278334026220, guid: fb3ec1f990e0834459e20e7be2459d63, type: 3}
      propertyPath: m_LocalPosition.x
      value: 50.76
      objectReference: {fileID: 0}
    - target: {fileID: 4924278334026220, guid: fb3ec1f990e0834459e20e7be2459d63, type: 3}
      propertyPath: m_LocalPosition.y
      value: 3.9452481
      objectReference: {fileID: 0}
    - target: {fileID: 4924278334026220, guid: fb3ec1f990e0834459e20e7be2459d63, type: 3}
      propertyPath: m_LocalPosition.z
      value: 46.72
      objectReference: {fileID: 0}
    - target: {fileID: 4924278334026220, guid: fb3ec1f990e0834459e20e7be2459d63, type: 3}
      propertyPath: m_LocalRotation.x
      value: -0
      objectReference: {fileID: 0}
    - target: {fileID: 4924278334026220, guid: fb3ec1f990e0834459e20e7be2459d63, type: 3}
      propertyPath: m_LocalRotation.y
      value: -0
      objectReference: {fileID: 0}
    - target: {fileID: 4924278334026220, guid: fb3ec1f990e0834459e20e7be2459d63, type: 3}
      propertyPath: m_LocalRotation.z
      value: -0
      objectReference: {fileID: 0}
    - target: {fileID: 4924278334026220, guid: fb3ec1f990e0834459e20e7be2459d63, type: 3}
      propertyPath: m_LocalRotation.w
      value: 1
      objectReference: {fileID: 0}
    - target: {fileID: 4924278334026220, guid: fb3ec1f990e0834459e20e7be2459d63, type: 3}
      propertyPath: m_RootOrder
      value: 24
      objectReference: {fileID: 0}
    m_RemovedComponents: []
  m_SourcePrefab: {fileID: 100100000, guid: fb3ec1f990e0834459e20e7be2459d63, type: 3}
--- !u!4 &165559856 stripped
Transform:
  m_CorrespondingSourceObject: {fileID: 4388296538832582, guid: 234f6fb2a7141ac4babed013ec52d294, type: 3}
  m_PrefabInstance: {fileID: 1973638980}
  m_PrefabAsset: {fileID: 0}
--- !u!43 &186026132
Mesh:
  m_ObjectHideFlags: 0
  m_CorrespondingSourceObject: {fileID: 0}
  m_PrefabInstance: {fileID: 0}
  m_PrefabAsset: {fileID: 0}
  m_Name: 
  serializedVersion: 10
  m_SubMeshes:
  - serializedVersion: 2
    firstByte: 0
    indexCount: 24
    topology: 0
    baseVertex: 0
    firstVertex: 0
    vertexCount: 8
    localAABB:
      m_Center: {x: 0, y: 0.01, z: 0}
      m_Extent: {x: 1.65, y: 0, z: 1.275}
  m_Shapes:
    vertices: []
    shapes: []
    channels: []
    fullWeights: []
  m_BindPose: []
  m_BoneNameHashes: 
  m_RootBoneNameHash: 0
  m_BonesAABB: []
  m_VariableBoneCountWeights:
    m_Data: 
  m_MeshCompression: 0
  m_IsReadable: 1
  m_KeepVertices: 1
  m_KeepIndices: 1
  m_IndexFormat: 0
  m_IndexBuffer: 000004000100010004000500010005000200020005000600020006000300030006000700030007000000000007000400
  m_VertexData:
    serializedVersion: 3
    m_VertexCount: 8
    m_Channels:
    - stream: 0
      offset: 0
      format: 0
      dimension: 3
    - stream: 0
      offset: 0
      format: 0
      dimension: 0
    - stream: 0
      offset: 0
      format: 0
      dimension: 0
    - stream: 0
      offset: 12
      format: 0
      dimension: 4
    - stream: 0
      offset: 28
      format: 0
      dimension: 2
    - stream: 0
      offset: 0
      format: 0
      dimension: 0
    - stream: 0
      offset: 0
      format: 0
      dimension: 0
    - stream: 0
      offset: 0
      format: 0
      dimension: 0
    - stream: 0
      offset: 0
      format: 0
      dimension: 0
    - stream: 0
      offset: 0
      format: 0
      dimension: 0
    - stream: 0
      offset: 0
      format: 0
      dimension: 0
    - stream: 0
      offset: 0
      format: 0
      dimension: 0
    - stream: 0
      offset: 0
      format: 0
      dimension: 0
    - stream: 0
      offset: 0
      format: 0
      dimension: 0
    m_DataSize: 288
    _typelessdata: 0000c03f0ad7233c000090bf000000000000803f0000803f0000803f00000000000000000000c0bf0ad7233c000090bf000000000000803f0000803f0000803f0000803f000000000000c0bf0ad7233c0000903f000000000000803f0000803f0000803f00000000000000000000c03f0ad7233c0000903f000000000000803f0000803f0000803f0000803f000000003333d33f0ad7233c3333a3bf000000000000803f0000803f00000000000000000000803f3333d3bf0ad7233c3333a3bf000000000000803f0000803f000000000000803f0000803f3333d3bf0ad7233c3333a33f000000000000803f0000803f00000000000000000000803f3333d33f0ad7233c3333a33f000000000000803f0000803f000000000000803f0000803f
  m_CompressedMesh:
    m_Vertices:
      m_NumItems: 0
      m_Range: 0
      m_Start: 0
      m_Data: 
      m_BitSize: 0
    m_UV:
      m_NumItems: 0
      m_Range: 0
      m_Start: 0
      m_Data: 
      m_BitSize: 0
    m_Normals:
      m_NumItems: 0
      m_Range: 0
      m_Start: 0
      m_Data: 
      m_BitSize: 0
    m_Tangents:
      m_NumItems: 0
      m_Range: 0
      m_Start: 0
      m_Data: 
      m_BitSize: 0
    m_Weights:
      m_NumItems: 0
      m_Data: 
      m_BitSize: 0
    m_NormalSigns:
      m_NumItems: 0
      m_Data: 
      m_BitSize: 0
    m_TangentSigns:
      m_NumItems: 0
      m_Data: 
      m_BitSize: 0
    m_FloatColors:
      m_NumItems: 0
      m_Range: 0
      m_Start: 0
      m_Data: 
      m_BitSize: 0
    m_BoneIndices:
      m_NumItems: 0
      m_Data: 
      m_BitSize: 0
    m_Triangles:
      m_NumItems: 0
      m_Data: 
      m_BitSize: 0
    m_UVInfo: 0
  m_LocalAABB:
    m_Center: {x: 0, y: 0.01, z: 0}
    m_Extent: {x: 1.65, y: 0, z: 1.275}
  m_MeshUsageFlags: 0
  m_BakedConvexCollisionMesh: 
  m_BakedTriangleCollisionMesh: 
  m_MeshMetrics[0]: 1
  m_MeshMetrics[1]: 1
  m_MeshOptimizationFlags: 1
  m_StreamData:
    serializedVersion: 2
    offset: 0
    size: 0
    path: 
--- !u!4 &191071999 stripped
Transform:
  m_CorrespondingSourceObject: {fileID: 4405990418711390, guid: c8241c5696cbec14bae8a38a0489c6ef, type: 3}
  m_PrefabInstance: {fileID: 247069724}
  m_PrefabAsset: {fileID: 0}
--- !u!4 &240520724 stripped
Transform:
  m_CorrespondingSourceObject: {fileID: 4592602840840914, guid: f8244925291293049a4f9db693e9e395, type: 3}
  m_PrefabInstance: {fileID: 571394764}
  m_PrefabAsset: {fileID: 0}
--- !u!1001 &247069724
PrefabInstance:
  m_ObjectHideFlags: 0
  serializedVersion: 2
  m_Modification:
    m_TransformParent: {fileID: 1503443544}
    m_Modifications:
    - target: {fileID: 1271463073934860, guid: c8241c5696cbec14bae8a38a0489c6ef, type: 3}
      propertyPath: m_Name
      value: tree_i (1)
      objectReference: {fileID: 0}
    - target: {fileID: 1271463073934860, guid: c8241c5696cbec14bae8a38a0489c6ef, type: 3}
      propertyPath: m_StaticEditorFlags
      value: 4294967295
      objectReference: {fileID: 0}
    - target: {fileID: 4405990418711390, guid: c8241c5696cbec14bae8a38a0489c6ef, type: 3}
      propertyPath: m_LocalPosition.x
      value: 34.98103
      objectReference: {fileID: 0}
    - target: {fileID: 4405990418711390, guid: c8241c5696cbec14bae8a38a0489c6ef, type: 3}
      propertyPath: m_LocalPosition.y
      value: 4.2187023
      objectReference: {fileID: 0}
    - target: {fileID: 4405990418711390, guid: c8241c5696cbec14bae8a38a0489c6ef, type: 3}
      propertyPath: m_LocalPosition.z
      value: 11.198824
      objectReference: {fileID: 0}
    - target: {fileID: 4405990418711390, guid: c8241c5696cbec14bae8a38a0489c6ef, type: 3}
      propertyPath: m_LocalRotation.x
      value: -0
      objectReference: {fileID: 0}
    - target: {fileID: 4405990418711390, guid: c8241c5696cbec14bae8a38a0489c6ef, type: 3}
      propertyPath: m_LocalRotation.y
      value: -0
      objectReference: {fileID: 0}
    - target: {fileID: 4405990418711390, guid: c8241c5696cbec14bae8a38a0489c6ef, type: 3}
      propertyPath: m_LocalRotation.z
      value: -0
      objectReference: {fileID: 0}
    - target: {fileID: 4405990418711390, guid: c8241c5696cbec14bae8a38a0489c6ef, type: 3}
      propertyPath: m_LocalRotation.w
      value: 1
      objectReference: {fileID: 0}
    - target: {fileID: 4405990418711390, guid: c8241c5696cbec14bae8a38a0489c6ef, type: 3}
      propertyPath: m_RootOrder
      value: 7
      objectReference: {fileID: 0}
    m_RemovedComponents: []
  m_SourcePrefab: {fileID: 100100000, guid: c8241c5696cbec14bae8a38a0489c6ef, type: 3}
--- !u!4 &253225832 stripped
Transform:
  m_CorrespondingSourceObject: {fileID: 4388296538832582, guid: 234f6fb2a7141ac4babed013ec52d294, type: 3}
  m_PrefabInstance: {fileID: 2047937415}
  m_PrefabAsset: {fileID: 0}
--- !u!4 &289220725 stripped
Transform:
  m_CorrespondingSourceObject: {fileID: 4419413963564962, guid: 4c19e7fac9429a743b3a44dab80d5829, type: 3}
  m_PrefabInstance: {fileID: 947660760}
  m_PrefabAsset: {fileID: 0}
--- !u!1001 &315081499
PrefabInstance:
  m_ObjectHideFlags: 0
  serializedVersion: 2
  m_Modification:
    m_TransformParent: {fileID: 1503443544}
    m_Modifications:
    - target: {fileID: 1275040304669678, guid: cc73d15ad10bfb04bb62d40a852cec0a, type: 3}
      propertyPath: m_Name
      value: tree_h (3)
      objectReference: {fileID: 0}
    - target: {fileID: 1275040304669678, guid: cc73d15ad10bfb04bb62d40a852cec0a, type: 3}
      propertyPath: m_StaticEditorFlags
      value: 4294967295
      objectReference: {fileID: 0}
    - target: {fileID: 4710095859576006, guid: cc73d15ad10bfb04bb62d40a852cec0a, type: 3}
      propertyPath: m_LocalPosition.x
      value: 17.66
      objectReference: {fileID: 0}
    - target: {fileID: 4710095859576006, guid: cc73d15ad10bfb04bb62d40a852cec0a, type: 3}
      propertyPath: m_LocalPosition.y
      value: 5.937557
      objectReference: {fileID: 0}
    - target: {fileID: 4710095859576006, guid: cc73d15ad10bfb04bb62d40a852cec0a, type: 3}
      propertyPath: m_LocalPosition.z
      value: 61.1
      objectReference: {fileID: 0}
    - target: {fileID: 4710095859576006, guid: cc73d15ad10bfb04bb62d40a852cec0a, type: 3}
      propertyPath: m_LocalRotation.x
      value: -0
      objectReference: {fileID: 0}
    - target: {fileID: 4710095859576006, guid: cc73d15ad10bfb04bb62d40a852cec0a, type: 3}
      propertyPath: m_LocalRotation.y
      value: -0
      objectReference: {fileID: 0}
    - target: {fileID: 4710095859576006, guid: cc73d15ad10bfb04bb62d40a852cec0a, type: 3}
      propertyPath: m_LocalRotation.z
      value: -0
      objectReference: {fileID: 0}
    - target: {fileID: 4710095859576006, guid: cc73d15ad10bfb04bb62d40a852cec0a, type: 3}
      propertyPath: m_LocalRotation.w
      value: 1
      objectReference: {fileID: 0}
    - target: {fileID: 4710095859576006, guid: cc73d15ad10bfb04bb62d40a852cec0a, type: 3}
      propertyPath: m_RootOrder
      value: 0
      objectReference: {fileID: 0}
    m_RemovedComponents: []
  m_SourcePrefab: {fileID: 100100000, guid: cc73d15ad10bfb04bb62d40a852cec0a, type: 3}
--- !u!4 &328281616 stripped
Transform:
  m_CorrespondingSourceObject: {fileID: 4405990418711390, guid: c8241c5696cbec14bae8a38a0489c6ef, type: 3}
  m_PrefabInstance: {fileID: 1894974840}
  m_PrefabAsset: {fileID: 0}
--- !u!1001 &337296809
PrefabInstance:
  m_ObjectHideFlags: 0
  serializedVersion: 2
  m_Modification:
    m_TransformParent: {fileID: 1503443544}
    m_Modifications:
    - target: {fileID: 1199139577487362, guid: f8244925291293049a4f9db693e9e395, type: 3}
      propertyPath: m_StaticEditorFlags
      value: 4294967295
      objectReference: {fileID: 0}
    - target: {fileID: 4592602840840914, guid: f8244925291293049a4f9db693e9e395, type: 3}
      propertyPath: m_LocalPosition.x
      value: 11.23
      objectReference: {fileID: 0}
    - target: {fileID: 4592602840840914, guid: f8244925291293049a4f9db693e9e395, type: 3}
      propertyPath: m_LocalPosition.y
      value: 4.2091975
      objectReference: {fileID: 0}
    - target: {fileID: 4592602840840914, guid: f8244925291293049a4f9db693e9e395, type: 3}
      propertyPath: m_LocalPosition.z
      value: 29.94
      objectReference: {fileID: 0}
    - target: {fileID: 4592602840840914, guid: f8244925291293049a4f9db693e9e395, type: 3}
      propertyPath: m_LocalRotation.x
      value: -0
      objectReference: {fileID: 0}
    - target: {fileID: 4592602840840914, guid: f8244925291293049a4f9db693e9e395, type: 3}
      propertyPath: m_LocalRotation.y
      value: -0
      objectReference: {fileID: 0}
    - target: {fileID: 4592602840840914, guid: f8244925291293049a4f9db693e9e395, type: 3}
      propertyPath: m_LocalRotation.z
      value: -0
      objectReference: {fileID: 0}
    - target: {fileID: 4592602840840914, guid: f8244925291293049a4f9db693e9e395, type: 3}
      propertyPath: m_LocalRotation.w
      value: 1
      objectReference: {fileID: 0}
    - target: {fileID: 4592602840840914, guid: f8244925291293049a4f9db693e9e395, type: 3}
      propertyPath: m_RootOrder
      value: 15
      objectReference: {fileID: 0}
    m_RemovedComponents: []
  m_SourcePrefab: {fileID: 100100000, guid: f8244925291293049a4f9db693e9e395, type: 3}
--- !u!4 &347847043 stripped
Transform:
  m_CorrespondingSourceObject: {fileID: 4710095859576006, guid: cc73d15ad10bfb04bb62d40a852cec0a, type: 3}
  m_PrefabInstance: {fileID: 629300597}
  m_PrefabAsset: {fileID: 0}
--- !u!1001 &375367786
PrefabInstance:
  m_ObjectHideFlags: 0
  serializedVersion: 2
  m_Modification:
    m_TransformParent: {fileID: 0}
    m_Modifications:
    - target: {fileID: 146900, guid: 4d293c8e162f3874b982baadd71153d2, type: 3}
      propertyPath: m_Name
      value: '[CameraRig]'
      objectReference: {fileID: 0}
    - target: {fileID: 420908, guid: 4d293c8e162f3874b982baadd71153d2, type: 3}
      propertyPath: m_LocalPosition.x
      value: 24.36852
      objectReference: {fileID: 0}
    - target: {fileID: 420908, guid: 4d293c8e162f3874b982baadd71153d2, type: 3}
      propertyPath: m_LocalPosition.y
      value: 10.9
      objectReference: {fileID: 0}
    - target: {fileID: 420908, guid: 4d293c8e162f3874b982baadd71153d2, type: 3}
      propertyPath: m_LocalPosition.z
      value: 67.11487
      objectReference: {fileID: 0}
    - target: {fileID: 420908, guid: 4d293c8e162f3874b982baadd71153d2, type: 3}
      propertyPath: m_LocalRotation.x
      value: 0.02060741
      objectReference: {fileID: 0}
    - target: {fileID: 420908, guid: 4d293c8e162f3874b982baadd71153d2, type: 3}
      propertyPath: m_LocalRotation.y
      value: 0.9548119
      objectReference: {fileID: 0}
    - target: {fileID: 420908, guid: 4d293c8e162f3874b982baadd71153d2, type: 3}
      propertyPath: m_LocalRotation.z
      value: -0.06819051
      objectReference: {fileID: 0}
    - target: {fileID: 420908, guid: 4d293c8e162f3874b982baadd71153d2, type: 3}
      propertyPath: m_LocalRotation.w
      value: 0.28854752
      objectReference: {fileID: 0}
    - target: {fileID: 420908, guid: 4d293c8e162f3874b982baadd71153d2, type: 3}
      propertyPath: m_RootOrder
      value: 0
      objectReference: {fileID: 0}
    - target: {fileID: 420908, guid: 4d293c8e162f3874b982baadd71153d2, type: 3}
      propertyPath: m_LocalEulerAnglesHint.x
      value: 8.17
      objectReference: {fileID: 0}
    - target: {fileID: 420908, guid: 4d293c8e162f3874b982baadd71153d2, type: 3}
      propertyPath: m_LocalEulerAnglesHint.y
      value: 146.37
      objectReference: {fileID: 0}
    - target: {fileID: 420908, guid: 4d293c8e162f3874b982baadd71153d2, type: 3}
      propertyPath: m_LocalEulerAnglesHint.z
      value: 0
      objectReference: {fileID: 0}
    - target: {fileID: 2348914, guid: 4d293c8e162f3874b982baadd71153d2, type: 3}
      propertyPath: m_Materials.Array.data[0]
      value: 
      objectReference: {fileID: 1865234462}
    - target: {fileID: 3380982, guid: 4d293c8e162f3874b982baadd71153d2, type: 3}
      propertyPath: m_Mesh
      value: 
      objectReference: {fileID: 186026132}
    m_RemovedComponents: []
  m_SourcePrefab: {fileID: 100100000, guid: 4d293c8e162f3874b982baadd71153d2, type: 3}
--- !u!4 &407317502 stripped
Transform:
  m_CorrespondingSourceObject: {fileID: 4405990418711390, guid: c8241c5696cbec14bae8a38a0489c6ef, type: 3}
  m_PrefabInstance: {fileID: 1647792475}
  m_PrefabAsset: {fileID: 0}
--- !u!1 &417325744
GameObject:
  m_ObjectHideFlags: 0
  m_CorrespondingSourceObject: {fileID: 0}
  m_PrefabInstance: {fileID: 0}
  m_PrefabAsset: {fileID: 0}
  serializedVersion: 6
  m_Component:
  - component: {fileID: 417325747}
  - component: {fileID: 417325746}
  - component: {fileID: 417325745}
  m_Layer: 0
  m_Name: Terrain
  m_TagString: Untagged
  m_Icon: {fileID: 0}
  m_NavMeshLayer: 0
  m_StaticEditorFlags: 4294967295
  m_IsActive: 1
--- !u!154 &417325745
TerrainCollider:
  m_ObjectHideFlags: 0
  m_CorrespondingSourceObject: {fileID: 0}
  m_PrefabInstance: {fileID: 0}
  m_PrefabAsset: {fileID: 0}
  m_GameObject: {fileID: 417325744}
  m_Material: {fileID: 0}
  m_Enabled: 1
  m_TerrainData: {fileID: 15600000, guid: cfb642e5ebbe6db4db73016b2dbe9c55, type: 2}
  m_EnableTreeColliders: 1
--- !u!218 &417325746
Terrain:
  m_ObjectHideFlags: 0
  m_CorrespondingSourceObject: {fileID: 0}
  m_PrefabInstance: {fileID: 0}
  m_PrefabAsset: {fileID: 0}
  m_GameObject: {fileID: 417325744}
  m_Enabled: 1
  serializedVersion: 6
  m_TerrainData: {fileID: 15600000, guid: cfb642e5ebbe6db4db73016b2dbe9c55, type: 2}
  m_TreeDistance: 2000
  m_TreeBillboardDistance: 200
  m_TreeCrossFadeLength: 5
  m_TreeMaximumFullLODCount: 50
  m_DetailObjectDistance: 250
  m_DetailObjectDensity: 1
  m_HeightmapPixelError: 80
  m_SplatMapDistance: 1000
  m_HeightmapMaximumLOD: 0
  m_ShadowCastingMode: 2
  m_DrawHeightmap: 1
  m_DrawInstanced: 0
  m_DrawTreesAndFoliage: 1
  m_ReflectionProbeUsage: 1
  m_MaterialTemplate: {fileID: 10650, guid: 0000000000000000f000000000000000, type: 0}
  m_BakeLightProbesForTrees: 1
  m_PreserveTreePrototypeLayers: 0
  m_DeringLightProbesForTrees: 1
  m_ScaleInLightmap: 0.128
  m_LightmapParameters: {fileID: 15203, guid: 0000000000000000f000000000000000, type: 0}
  m_GroupingID: 0
  m_RenderingLayerMask: 1
  m_AllowAutoConnect: 0
--- !u!4 &417325747
Transform:
  m_ObjectHideFlags: 0
  m_CorrespondingSourceObject: {fileID: 0}
  m_PrefabInstance: {fileID: 0}
  m_PrefabAsset: {fileID: 0}
  m_GameObject: {fileID: 417325744}
  m_LocalRotation: {x: 0, y: 0, z: 0, w: 1}
  m_LocalPosition: {x: 0, y: 0, z: 0}
  m_LocalScale: {x: 1, y: 1, z: 1}
  m_Children: []
  m_Father: {fileID: 0}
  m_RootOrder: 4
  m_LocalEulerAnglesHint: {x: 0, y: 0, z: 0}
--- !u!1001 &448177646
PrefabInstance:
  m_ObjectHideFlags: 0
  serializedVersion: 2
  m_Modification:
    m_TransformParent: {fileID: 1503443544}
    m_Modifications:
    - target: {fileID: 1127789175704916, guid: 234f6fb2a7141ac4babed013ec52d294, type: 3}
      propertyPath: m_Name
      value: tree_d (1)
      objectReference: {fileID: 0}
    - target: {fileID: 1127789175704916, guid: 234f6fb2a7141ac4babed013ec52d294, type: 3}
      propertyPath: m_StaticEditorFlags
      value: 4294967295
      objectReference: {fileID: 0}
    - target: {fileID: 4388296538832582, guid: 234f6fb2a7141ac4babed013ec52d294, type: 3}
      propertyPath: m_LocalPosition.x
      value: 55.633965
      objectReference: {fileID: 0}
    - target: {fileID: 4388296538832582, guid: 234f6fb2a7141ac4babed013ec52d294, type: 3}
      propertyPath: m_LocalPosition.y
      value: 5.273454
      objectReference: {fileID: 0}
    - target: {fileID: 4388296538832582, guid: 234f6fb2a7141ac4babed013ec52d294, type: 3}
      propertyPath: m_LocalPosition.z
      value: 59.04215
      objectReference: {fileID: 0}
    - target: {fileID: 4388296538832582, guid: 234f6fb2a7141ac4babed013ec52d294, type: 3}
      propertyPath: m_LocalRotation.x
      value: -0
      objectReference: {fileID: 0}
    - target: {fileID: 4388296538832582, guid: 234f6fb2a7141ac4babed013ec52d294, type: 3}
      propertyPath: m_LocalRotation.y
      value: -0
      objectReference: {fileID: 0}
    - target: {fileID: 4388296538832582, guid: 234f6fb2a7141ac4babed013ec52d294, type: 3}
      propertyPath: m_LocalRotation.z
      value: -0
      objectReference: {fileID: 0}
    - target: {fileID: 4388296538832582, guid: 234f6fb2a7141ac4babed013ec52d294, type: 3}
      propertyPath: m_LocalRotation.w
      value: 1
      objectReference: {fileID: 0}
    - target: {fileID: 4388296538832582, guid: 234f6fb2a7141ac4babed013ec52d294, type: 3}
      propertyPath: m_RootOrder
      value: 21
      objectReference: {fileID: 0}
    m_RemovedComponents: []
  m_SourcePrefab: {fileID: 100100000, guid: 234f6fb2a7141ac4babed013ec52d294, type: 3}
--- !u!4 &497387407 stripped
Transform:
  m_CorrespondingSourceObject: {fileID: 4883135237462646, guid: 2dec588a435420f4589914de23d120f5, type: 3}
  m_PrefabInstance: {fileID: 1397118640}
  m_PrefabAsset: {fileID: 0}
--- !u!1001 &502859018
PrefabInstance:
  m_ObjectHideFlags: 0
  serializedVersion: 2
  m_Modification:
    m_TransformParent: {fileID: 0}
    m_Modifications:
    - target: {fileID: 4198043814721128, guid: ce1c47babe5679143b24221e8878c4dd, type: 3}
      propertyPath: m_LocalPosition.x
      value: 37.5
      objectReference: {fileID: 0}
    - target: {fileID: 4198043814721128, guid: ce1c47babe5679143b24221e8878c4dd, type: 3}
      propertyPath: m_LocalPosition.y
      value: 0
      objectReference: {fileID: 0}
    - target: {fileID: 4198043814721128, guid: ce1c47babe5679143b24221e8878c4dd, type: 3}
      propertyPath: m_LocalPosition.z
      value: 37.5
      objectReference: {fileID: 0}
    - target: {fileID: 4198043814721128, guid: ce1c47babe5679143b24221e8878c4dd, type: 3}
      propertyPath: m_LocalRotation.x
      value: -0.7071068
      objectReference: {fileID: 0}
    - target: {fileID: 4198043814721128, guid: ce1c47babe5679143b24221e8878c4dd, type: 3}
      propertyPath: m_LocalRotation.y
      value: 0
      objectReference: {fileID: 0}
    - target: {fileID: 4198043814721128, guid: ce1c47babe5679143b24221e8878c4dd, type: 3}
      propertyPath: m_LocalRotation.z
      value: -0
      objectReference: {fileID: 0}
    - target: {fileID: 4198043814721128, guid: ce1c47babe5679143b24221e8878c4dd, type: 3}
      propertyPath: m_LocalRotation.w
      value: 0.7071068
      objectReference: {fileID: 0}
    - target: {fileID: 4198043814721128, guid: ce1c47babe5679143b24221e8878c4dd, type: 3}
      propertyPath: m_RootOrder
      value: 1
      objectReference: {fileID: 0}
    m_RemovedComponents: []
  m_SourcePrefab: {fileID: 100100000, guid: ce1c47babe5679143b24221e8878c4dd, type: 3}
--- !u!1 &524058247
GameObject:
  m_ObjectHideFlags: 0
  m_CorrespondingSourceObject: {fileID: 0}
  m_PrefabInstance: {fileID: 0}
  m_PrefabAsset: {fileID: 0}
  serializedVersion: 6
  m_Component:
  - component: {fileID: 524058250}
  - component: {fileID: 524058249}
  - component: {fileID: 524058248}
  m_Layer: 0
  m_Name: Terrain (1)
  m_TagString: Untagged
  m_Icon: {fileID: 0}
  m_NavMeshLayer: 0
  m_StaticEditorFlags: 4294967295
  m_IsActive: 1
--- !u!154 &524058248
TerrainCollider:
  m_ObjectHideFlags: 0
  m_CorrespondingSourceObject: {fileID: 0}
  m_PrefabInstance: {fileID: 0}
  m_PrefabAsset: {fileID: 0}
  m_GameObject: {fileID: 524058247}
  m_Material: {fileID: 0}
  m_Enabled: 1
  m_TerrainData: {fileID: 15600000, guid: cfb642e5ebbe6db4db73016b2dbe9c55, type: 2}
  m_EnableTreeColliders: 1
--- !u!218 &524058249
Terrain:
  m_ObjectHideFlags: 0
  m_CorrespondingSourceObject: {fileID: 0}
  m_PrefabInstance: {fileID: 0}
  m_PrefabAsset: {fileID: 0}
  m_GameObject: {fileID: 524058247}
  m_Enabled: 1
  serializedVersion: 6
  m_TerrainData: {fileID: 15600000, guid: cfb642e5ebbe6db4db73016b2dbe9c55, type: 2}
  m_TreeDistance: 2000
  m_TreeBillboardDistance: 50
  m_TreeCrossFadeLength: 5
  m_TreeMaximumFullLODCount: 50
  m_DetailObjectDistance: 80
  m_DetailObjectDensity: 1
  m_HeightmapPixelError: 80
  m_SplatMapDistance: 1000
  m_HeightmapMaximumLOD: 0
  m_ShadowCastingMode: 2
  m_DrawHeightmap: 1
  m_DrawInstanced: 0
  m_DrawTreesAndFoliage: 1
  m_ReflectionProbeUsage: 1
  m_MaterialTemplate: {fileID: 10650, guid: 0000000000000000f000000000000000, type: 0}
  m_BakeLightProbesForTrees: 1
  m_PreserveTreePrototypeLayers: 0
  m_DeringLightProbesForTrees: 1
  m_ScaleInLightmap: 0.128
  m_LightmapParameters: {fileID: 15203, guid: 0000000000000000f000000000000000, type: 0}
  m_GroupingID: 0
  m_RenderingLayerMask: 1
  m_AllowAutoConnect: 0
--- !u!4 &524058250
Transform:
  m_ObjectHideFlags: 0
  m_CorrespondingSourceObject: {fileID: 0}
  m_PrefabInstance: {fileID: 0}
  m_PrefabAsset: {fileID: 0}
  m_GameObject: {fileID: 524058247}
  m_LocalRotation: {x: 0, y: 0, z: 0, w: 1}
  m_LocalPosition: {x: 69.7, y: -0.2, z: 1.1}
  m_LocalScale: {x: 1, y: 1, z: 1}
  m_Children: []
  m_Father: {fileID: 0}
  m_RootOrder: 5
  m_LocalEulerAnglesHint: {x: 0, y: 0, z: 0}
--- !u!4 &559409811 stripped
Transform:
  m_CorrespondingSourceObject: {fileID: 4924278334026220, guid: fb3ec1f990e0834459e20e7be2459d63, type: 3}
  m_PrefabInstance: {fileID: 65286553}
  m_PrefabAsset: {fileID: 0}
--- !u!1001 &569975404
PrefabInstance:
  m_ObjectHideFlags: 0
  serializedVersion: 2
  m_Modification:
    m_TransformParent: {fileID: 1503443544}
    m_Modifications:
    - target: {fileID: 1766233099539046, guid: 4c19e7fac9429a743b3a44dab80d5829, type: 3}
      propertyPath: m_Name
      value: tree_e (2)
      objectReference: {fileID: 0}
    - target: {fileID: 1766233099539046, guid: 4c19e7fac9429a743b3a44dab80d5829, type: 3}
      propertyPath: m_StaticEditorFlags
      value: 4294967295
      objectReference: {fileID: 0}
    - target: {fileID: 4419413963564962, guid: 4c19e7fac9429a743b3a44dab80d5829, type: 3}
      propertyPath: m_LocalPosition.x
      value: 93.51303
      objectReference: {fileID: 0}
    - target: {fileID: 4419413963564962, guid: 4c19e7fac9429a743b3a44dab80d5829, type: 3}
      propertyPath: m_LocalPosition.y
      value: 3.224757
      objectReference: {fileID: 0}
    - target: {fileID: 4419413963564962, guid: 4c19e7fac9429a743b3a44dab80d5829, type: 3}
      propertyPath: m_LocalPosition.z
      value: 40.90054
      objectReference: {fileID: 0}
    - target: {fileID: 4419413963564962, guid: 4c19e7fac9429a743b3a44dab80d5829, type: 3}
      propertyPath: m_LocalRotation.x
      value: -0
      objectReference: {fileID: 0}
    - target: {fileID: 4419413963564962, guid: 4c19e7fac9429a743b3a44dab80d5829, type: 3}
      propertyPath: m_LocalRotation.y
      value: -0
      objectReference: {fileID: 0}
    - target: {fileID: 4419413963564962, guid: 4c19e7fac9429a743b3a44dab80d5829, type: 3}
      propertyPath: m_LocalRotation.z
      value: -0
      objectReference: {fileID: 0}
    - target: {fileID: 4419413963564962, guid: 4c19e7fac9429a743b3a44dab80d5829, type: 3}
      propertyPath: m_LocalRotation.w
      value: 1
      objectReference: {fileID: 0}
    - target: {fileID: 4419413963564962, guid: 4c19e7fac9429a743b3a44dab80d5829, type: 3}
      propertyPath: m_RootOrder
      value: 9
      objectReference: {fileID: 0}
    m_RemovedComponents: []
  m_SourcePrefab: {fileID: 100100000, guid: 4c19e7fac9429a743b3a44dab80d5829, type: 3}
--- !u!1001 &571394764
PrefabInstance:
  m_ObjectHideFlags: 0
  serializedVersion: 2
  m_Modification:
    m_TransformParent: {fileID: 1503443544}
    m_Modifications:
    - target: {fileID: 1199139577487362, guid: f8244925291293049a4f9db693e9e395, type: 3}
      propertyPath: m_Name
      value: tree_g (2)
      objectReference: {fileID: 0}
    - target: {fileID: 1199139577487362, guid: f8244925291293049a4f9db693e9e395, type: 3}
      propertyPath: m_StaticEditorFlags
      value: 4294967295
      objectReference: {fileID: 0}
    - target: {fileID: 4592602840840914, guid: f8244925291293049a4f9db693e9e395, type: 3}
      propertyPath: m_LocalPosition.x
      value: 85.04023
      objectReference: {fileID: 0}
    - target: {fileID: 4592602840840914, guid: f8244925291293049a4f9db693e9e395, type: 3}
      propertyPath: m_LocalPosition.y
      value: 4.0907345
      objectReference: {fileID: 0}
    - target: {fileID: 4592602840840914, guid: f8244925291293049a4f9db693e9e395, type: 3}
      propertyPath: m_LocalPosition.z
      value: 32.107704
      objectReference: {fileID: 0}
    - target: {fileID: 4592602840840914, guid: f8244925291293049a4f9db693e9e395, type: 3}
      propertyPath: m_LocalRotation.x
      value: -0
      objectReference: {fileID: 0}
    - target: {fileID: 4592602840840914, guid: f8244925291293049a4f9db693e9e395, type: 3}
      propertyPath: m_LocalRotation.y
      value: -0
      objectReference: {fileID: 0}
    - target: {fileID: 4592602840840914, guid: f8244925291293049a4f9db693e9e395, type: 3}
      propertyPath: m_LocalRotation.z
      value: -0
      objectReference: {fileID: 0}
    - target: {fileID: 4592602840840914, guid: f8244925291293049a4f9db693e9e395, type: 3}
      propertyPath: m_LocalRotation.w
      value: 1
      objectReference: {fileID: 0}
    - target: {fileID: 4592602840840914, guid: f8244925291293049a4f9db693e9e395, type: 3}
      propertyPath: m_RootOrder
      value: 8
      objectReference: {fileID: 0}
    m_RemovedComponents: []
  m_SourcePrefab: {fileID: 100100000, guid: f8244925291293049a4f9db693e9e395, type: 3}
--- !u!1001 &586428439
PrefabInstance:
  m_ObjectHideFlags: 0
  serializedVersion: 2
  m_Modification:
    m_TransformParent: {fileID: 1503443544}
    m_Modifications:
    - target: {fileID: 1199139577487362, guid: f8244925291293049a4f9db693e9e395, type: 3}
      propertyPath: m_Name
      value: tree_g (1)
      objectReference: {fileID: 0}
    - target: {fileID: 1199139577487362, guid: f8244925291293049a4f9db693e9e395, type: 3}
      propertyPath: m_StaticEditorFlags
      value: 4294967295
      objectReference: {fileID: 0}
    - target: {fileID: 4592602840840914, guid: f8244925291293049a4f9db693e9e395, type: 3}
      propertyPath: m_LocalPosition.x
      value: 58.69
      objectReference: {fileID: 0}
    - target: {fileID: 4592602840840914, guid: f8244925291293049a4f9db693e9e395, type: 3}
      propertyPath: m_LocalPosition.y
      value: 4.5702863
      objectReference: {fileID: 0}
    - target: {fileID: 4592602840840914, guid: f8244925291293049a4f9db693e9e395, type: 3}
      propertyPath: m_LocalPosition.z
      value: 47.98
      objectReference: {fileID: 0}
    - target: {fileID: 4592602840840914, guid: f8244925291293049a4f9db693e9e395, type: 3}
      propertyPath: m_LocalRotation.x
      value: -0
      objectReference: {fileID: 0}
    - target: {fileID: 4592602840840914, guid: f8244925291293049a4f9db693e9e395, type: 3}
      propertyPath: m_LocalRotation.y
      value: -0
      objectReference: {fileID: 0}
    - target: {fileID: 4592602840840914, guid: f8244925291293049a4f9db693e9e395, type: 3}
      propertyPath: m_LocalRotation.z
      value: -0
      objectReference: {fileID: 0}
    - target: {fileID: 4592602840840914, guid: f8244925291293049a4f9db693e9e395, type: 3}
      propertyPath: m_LocalRotation.w
      value: 1
      objectReference: {fileID: 0}
    - target: {fileID: 4592602840840914, guid: f8244925291293049a4f9db693e9e395, type: 3}
      propertyPath: m_RootOrder
      value: 12
      objectReference: {fileID: 0}
    m_RemovedComponents: []
  m_SourcePrefab: {fileID: 100100000, guid: f8244925291293049a4f9db693e9e395, type: 3}
--- !u!4 &603445472 stripped
Transform:
  m_CorrespondingSourceObject: {fileID: 4419413963564962, guid: 4c19e7fac9429a743b3a44dab80d5829, type: 3}
  m_PrefabInstance: {fileID: 1001190161}
  m_PrefabAsset: {fileID: 0}
--- !u!1001 &619258758
PrefabInstance:
  m_ObjectHideFlags: 0
  serializedVersion: 2
  m_Modification:
    m_TransformParent: {fileID: 0}
    m_Modifications:
    - target: {fileID: 4453672594505660, guid: 229d7fab587866f4c9a74f4a8a1f4707, type: 3}
      propertyPath: m_LocalPosition.x
      value: 94.3
      objectReference: {fileID: 0}
    - target: {fileID: 4453672594505660, guid: 229d7fab587866f4c9a74f4a8a1f4707, type: 3}
      propertyPath: m_LocalPosition.y
      value: -9.1
      objectReference: {fileID: 0}
    - target: {fileID: 4453672594505660, guid: 229d7fab587866f4c9a74f4a8a1f4707, type: 3}
      propertyPath: m_LocalPosition.z
      value: -54.2
      objectReference: {fileID: 0}
    - target: {fileID: 4453672594505660, guid: 229d7fab587866f4c9a74f4a8a1f4707, type: 3}
      propertyPath: m_LocalRotation.x
      value: 0.77431923
      objectReference: {fileID: 0}
    - target: {fileID: 4453672594505660, guid: 229d7fab587866f4c9a74f4a8a1f4707, type: 3}
      propertyPath: m_LocalRotation.y
      value: 0.013205643
      objectReference: {fileID: 0}
    - target: {fileID: 4453672594505660, guid: 229d7fab587866f4c9a74f4a8a1f4707, type: 3}
      propertyPath: m_LocalRotation.z
      value: 0.63256544
      objectReference: {fileID: 0}
    - target: {fileID: 4453672594505660, guid: 229d7fab587866f4c9a74f4a8a1f4707, type: 3}
      propertyPath: m_LocalRotation.w
      value: 0.010788087
      objectReference: {fileID: 0}
    - target: {fileID: 4453672594505660, guid: 229d7fab587866f4c9a74f4a8a1f4707, type: 3}
      propertyPath: m_RootOrder
      value: 2
      objectReference: {fileID: 0}
    m_RemovedComponents: []
  m_SourcePrefab: {fileID: 100100000, guid: 229d7fab587866f4c9a74f4a8a1f4707, type: 3}
--- !u!1001 &629300597
PrefabInstance:
  m_ObjectHideFlags: 0
  serializedVersion: 2
  m_Modification:
    m_TransformParent: {fileID: 1503443544}
    m_Modifications:
    - target: {fileID: 1275040304669678, guid: cc73d15ad10bfb04bb62d40a852cec0a, type: 3}
      propertyPath: m_Name
      value: tree_h (2)
      objectReference: {fileID: 0}
    - target: {fileID: 1275040304669678, guid: cc73d15ad10bfb04bb62d40a852cec0a, type: 3}
      propertyPath: m_StaticEditorFlags
      value: 4294967295
      objectReference: {fileID: 0}
    - target: {fileID: 4710095859576006, guid: cc73d15ad10bfb04bb62d40a852cec0a, type: 3}
      propertyPath: m_LocalPosition.x
      value: 24.864317
      objectReference: {fileID: 0}
    - target: {fileID: 4710095859576006, guid: cc73d15ad10bfb04bb62d40a852cec0a, type: 3}
      propertyPath: m_LocalPosition.y
      value: 3.9452481
      objectReference: {fileID: 0}
    - target: {fileID: 4710095859576006, guid: cc73d15ad10bfb04bb62d40a852cec0a, type: 3}
      propertyPath: m_LocalPosition.z
      value: 14.2998
      objectReference: {fileID: 0}
    - target: {fileID: 4710095859576006, guid: cc73d15ad10bfb04bb62d40a852cec0a, type: 3}
      propertyPath: m_LocalRotation.x
      value: -0
      objectReference: {fileID: 0}
    - target: {fileID: 4710095859576006, guid: cc73d15ad10bfb04bb62d40a852cec0a, type: 3}
      propertyPath: m_LocalRotation.y
      value: -0
      objectReference: {fileID: 0}
    - target: {fileID: 4710095859576006, guid: cc73d15ad10bfb04bb62d40a852cec0a, type: 3}
      propertyPath: m_LocalRotation.z
      value: -0
      objectReference: {fileID: 0}
    - target: {fileID: 4710095859576006, guid: cc73d15ad10bfb04bb62d40a852cec0a, type: 3}
      propertyPath: m_LocalRotation.w
      value: 1
      objectReference: {fileID: 0}
    - target: {fileID: 4710095859576006, guid: cc73d15ad10bfb04bb62d40a852cec0a, type: 3}
      propertyPath: m_RootOrder
      value: 1
      objectReference: {fileID: 0}
    m_RemovedComponents: []
  m_SourcePrefab: {fileID: 100100000, guid: cc73d15ad10bfb04bb62d40a852cec0a, type: 3}
--- !u!1001 &645480482
PrefabInstance:
  m_ObjectHideFlags: 0
  serializedVersion: 2
  m_Modification:
    m_TransformParent: {fileID: 1503443544}
    m_Modifications:
    - target: {fileID: 1036133027578740, guid: 860cb32684b3a554ca851ba50a94d0cc, type: 3}
      propertyPath: m_StaticEditorFlags
      value: 4294967295
      objectReference: {fileID: 0}
    - target: {fileID: 4383281184719468, guid: 860cb32684b3a554ca851ba50a94d0cc, type: 3}
      propertyPath: m_LocalPosition.x
      value: 2.89
      objectReference: {fileID: 0}
    - target: {fileID: 4383281184719468, guid: 860cb32684b3a554ca851ba50a94d0cc, type: 3}
      propertyPath: m_LocalPosition.y
      value: 4.598342
      objectReference: {fileID: 0}
    - target: {fileID: 4383281184719468, guid: 860cb32684b3a554ca851ba50a94d0cc, type: 3}
      propertyPath: m_LocalPosition.z
      value: 28.32
      objectReference: {fileID: 0}
    - target: {fileID: 4383281184719468, guid: 860cb32684b3a554ca851ba50a94d0cc, type: 3}
      propertyPath: m_LocalRotation.x
      value: -0
      objectReference: {fileID: 0}
    - target: {fileID: 4383281184719468, guid: 860cb32684b3a554ca851ba50a94d0cc, type: 3}
      propertyPath: m_LocalRotation.y
      value: -0
      objectReference: {fileID: 0}
    - target: {fileID: 4383281184719468, guid: 860cb32684b3a554ca851ba50a94d0cc, type: 3}
      propertyPath: m_LocalRotation.z
      value: -0
      objectReference: {fileID: 0}
    - target: {fileID: 4383281184719468, guid: 860cb32684b3a554ca851ba50a94d0cc, type: 3}
      propertyPath: m_LocalRotation.w
      value: 1
      objectReference: {fileID: 0}
    - target: {fileID: 4383281184719468, guid: 860cb32684b3a554ca851ba50a94d0cc, type: 3}
      propertyPath: m_RootOrder
      value: 14
      objectReference: {fileID: 0}
    m_RemovedComponents: []
  m_SourcePrefab: {fileID: 100100000, guid: 860cb32684b3a554ca851ba50a94d0cc, type: 3}
--- !u!1001 &691259430
PrefabInstance:
  m_ObjectHideFlags: 0
  serializedVersion: 2
  m_Modification:
    m_TransformParent: {fileID: 1503443544}
    m_Modifications:
    - target: {fileID: 1127789175704916, guid: 234f6fb2a7141ac4babed013ec52d294, type: 3}
      propertyPath: m_Name
      value: tree_d (3)
      objectReference: {fileID: 0}
    - target: {fileID: 1127789175704916, guid: 234f6fb2a7141ac4babed013ec52d294, type: 3}
      propertyPath: m_StaticEditorFlags
      value: 4294967295
      objectReference: {fileID: 0}
    - target: {fileID: 4388296538832582, guid: 234f6fb2a7141ac4babed013ec52d294, type: 3}
      propertyPath: m_LocalPosition.x
      value: 38.1
      objectReference: {fileID: 0}
    - target: {fileID: 4388296538832582, guid: 234f6fb2a7141ac4babed013ec52d294, type: 3}
      propertyPath: m_LocalPosition.y
      value: 4.8437405
      objectReference: {fileID: 0}
    - target: {fileID: 4388296538832582, guid: 234f6fb2a7141ac4babed013ec52d294, type: 3}
      propertyPath: m_LocalPosition.z
      value: 38.08
      objectReference: {fileID: 0}
    - target: {fileID: 4388296538832582, guid: 234f6fb2a7141ac4babed013ec52d294, type: 3}
      propertyPath: m_LocalRotation.x
      value: -0
      objectReference: {fileID: 0}
    - target: {fileID: 4388296538832582, guid: 234f6fb2a7141ac4babed013ec52d294, type: 3}
      propertyPath: m_LocalRotation.y
      value: -0
      objectReference: {fileID: 0}
    - target: {fileID: 4388296538832582, guid: 234f6fb2a7141ac4babed013ec52d294, type: 3}
      propertyPath: m_LocalRotation.z
      value: -0
      objectReference: {fileID: 0}
    - target: {fileID: 4388296538832582, guid: 234f6fb2a7141ac4babed013ec52d294, type: 3}
      propertyPath: m_LocalRotation.w
      value: 1
      objectReference: {fileID: 0}
    - target: {fileID: 4388296538832582, guid: 234f6fb2a7141ac4babed013ec52d294, type: 3}
      propertyPath: m_RootOrder
      value: 4
      objectReference: {fileID: 0}
    m_RemovedComponents: []
  m_SourcePrefab: {fileID: 100100000, guid: 234f6fb2a7141ac4babed013ec52d294, type: 3}
--- !u!4 &760810401 stripped
Transform:
  m_CorrespondingSourceObject: {fileID: 4419413963564962, guid: 4c19e7fac9429a743b3a44dab80d5829, type: 3}
  m_PrefabInstance: {fileID: 569975404}
  m_PrefabAsset: {fileID: 0}
--- !u!4 &774768043 stripped
Transform:
  m_CorrespondingSourceObject: {fileID: 4383281184719468, guid: 860cb32684b3a554ca851ba50a94d0cc, type: 3}
  m_PrefabInstance: {fileID: 645480482}
  m_PrefabAsset: {fileID: 0}
--- !u!4 &864162360 stripped
Transform:
  m_CorrespondingSourceObject: {fileID: 4592602840840914, guid: f8244925291293049a4f9db693e9e395, type: 3}
  m_PrefabInstance: {fileID: 337296809}
  m_PrefabAsset: {fileID: 0}
--- !u!1001 &947660760
PrefabInstance:
  m_ObjectHideFlags: 0
  serializedVersion: 2
  m_Modification:
    m_TransformParent: {fileID: 1503443544}
    m_Modifications:
    - target: {fileID: 1766233099539046, guid: 4c19e7fac9429a743b3a44dab80d5829, type: 3}
      propertyPath: m_StaticEditorFlags
      value: 4294967295
      objectReference: {fileID: 0}
    - target: {fileID: 4419413963564962, guid: 4c19e7fac9429a743b3a44dab80d5829, type: 3}
      propertyPath: m_LocalPosition.x
      value: 40.11
      objectReference: {fileID: 0}
    - target: {fileID: 4419413963564962, guid: 4c19e7fac9429a743b3a44dab80d5829, type: 3}
      propertyPath: m_LocalPosition.y
      value: 4.7879105
      objectReference: {fileID: 0}
    - target: {fileID: 4419413963564962, guid: 4c19e7fac9429a743b3a44dab80d5829, type: 3}
      propertyPath: m_LocalPosition.z
      value: 55.55
      objectReference: {fileID: 0}
    - target: {fileID: 4419413963564962, guid: 4c19e7fac9429a743b3a44dab80d5829, type: 3}
      propertyPath: m_LocalRotation.x
      value: -0
      objectReference: {fileID: 0}
    - target: {fileID: 4419413963564962, guid: 4c19e7fac9429a743b3a44dab80d5829, type: 3}
      propertyPath: m_LocalRotation.y
      value: -0
      objectReference: {fileID: 0}
    - target: {fileID: 4419413963564962, guid: 4c19e7fac9429a743b3a44dab80d5829, type: 3}
      propertyPath: m_LocalRotation.z
      value: -0
      objectReference: {fileID: 0}
    - target: {fileID: 4419413963564962, guid: 4c19e7fac9429a743b3a44dab80d5829, type: 3}
      propertyPath: m_LocalRotation.w
      value: 1
      objectReference: {fileID: 0}
    - target: {fileID: 4419413963564962, guid: 4c19e7fac9429a743b3a44dab80d5829, type: 3}
      propertyPath: m_RootOrder
      value: 20
      objectReference: {fileID: 0}
    m_RemovedComponents: []
  m_SourcePrefab: {fileID: 100100000, guid: 4c19e7fac9429a743b3a44dab80d5829, type: 3}
--- !u!1 &955634670
GameObject:
  m_ObjectHideFlags: 0
  m_CorrespondingSourceObject: {fileID: 0}
  m_PrefabInstance: {fileID: 0}
  m_PrefabAsset: {fileID: 0}
  serializedVersion: 6
  m_Component:
  - component: {fileID: 955634672}
  - component: {fileID: 955634671}
  m_Layer: 0
  m_Name: Directional Light
  m_TagString: Untagged
  m_Icon: {fileID: 0}
  m_NavMeshLayer: 0
  m_StaticEditorFlags: 0
  m_IsActive: 1
--- !u!108 &955634671
Light:
  m_ObjectHideFlags: 0
  m_CorrespondingSourceObject: {fileID: 0}
  m_PrefabInstance: {fileID: 0}
  m_PrefabAsset: {fileID: 0}
  m_GameObject: {fileID: 955634670}
  m_Enabled: 1
  serializedVersion: 10
  m_Type: 1
  m_Shape: 0
  m_Color: {r: 1, g: 0.9051724, b: 0.5955882, a: 1}
  m_Intensity: 1
  m_Range: 10
  m_SpotAngle: 30
  m_InnerSpotAngle: 21.80208
  m_CookieSize: 10
  m_Shadows:
    m_Type: 2
    m_Resolution: -1
    m_CustomResolution: -1
    m_Strength: 1
    m_Bias: 0.37
    m_NormalBias: 1.54
    m_NearPlane: 0.1
    m_CullingMatrixOverride:
      e00: 1
      e01: 0
      e02: 0
      e03: 0
      e10: 0
      e11: 1
      e12: 0
      e13: 0
      e20: 0
      e21: 0
      e22: 1
      e23: 0
      e30: 0
      e31: 0
      e32: 0
      e33: 1
    m_UseCullingMatrixOverride: 0
  m_Cookie: {fileID: 0}
  m_DrawHalo: 0
  m_Flare: {fileID: 0}
  m_RenderMode: 0
  m_CullingMask:
    serializedVersion: 2
    m_Bits: 4294967295
  m_RenderingLayerMask: 1
  m_Lightmapping: 4
  m_LightShadowCasterMode: 0
  m_AreaSize: {x: 1, y: 1}
  m_BounceIntensity: 0
  m_ColorTemperature: 6570
  m_UseColorTemperature: 0
  m_BoundingSphereOverride: {x: 0, y: 0, z: 0, w: 0}
  m_UseBoundingSphereOverride: 0
  m_ShadowRadius: 0
  m_ShadowAngle: 0
--- !u!4 &955634672
Transform:
  m_ObjectHideFlags: 0
  m_CorrespondingSourceObject: {fileID: 0}
  m_PrefabInstance: {fileID: 0}
  m_PrefabAsset: {fileID: 0}
  m_GameObject: {fileID: 955634670}
  m_LocalRotation: {x: 0.7106238, y: -0.23996069, z: 0.5963896, w: 0.28592357}
  m_LocalPosition: {x: 9.89, y: 18.31, z: 0}
  m_LocalScale: {x: 1, y: 1, z: 1}
  m_Children: []
  m_Father: {fileID: 0}
  m_RootOrder: 3
  m_LocalEulerAnglesHint: {x: 136.165, y: -80.01001, z: 0}
--- !u!4 &986442238 stripped
Transform:
  m_CorrespondingSourceObject: {fileID: 4370548439093532, guid: 84e38d7f6eafbd44c94f15c42908c48c, type: 3}
  m_PrefabInstance: {fileID: 1865144493}
  m_PrefabAsset: {fileID: 0}
--- !u!1001 &1001190161
PrefabInstance:
  m_ObjectHideFlags: 0
  serializedVersion: 2
  m_Modification:
    m_TransformParent: {fileID: 1503443544}
    m_Modifications:
    - target: {fileID: 1766233099539046, guid: 4c19e7fac9429a743b3a44dab80d5829, type: 3}
      propertyPath: m_Name
      value: tree_e (1)
      objectReference: {fileID: 0}
    - target: {fileID: 1766233099539046, guid: 4c19e7fac9429a743b3a44dab80d5829, type: 3}
      propertyPath: m_StaticEditorFlags
      value: 4294967295
      objectReference: {fileID: 0}
    - target: {fileID: 4419413963564962, guid: 4c19e7fac9429a743b3a44dab80d5829, type: 3}
      propertyPath: m_LocalPosition.x
      value: 40.756626
      objectReference: {fileID: 0}
    - target: {fileID: 4419413963564962, guid: 4c19e7fac9429a743b3a44dab80d5829, type: 3}
      propertyPath: m_LocalPosition.y
      value: 4.588404
      objectReference: {fileID: 0}
    - target: {fileID: 4419413963564962, guid: 4c19e7fac9429a743b3a44dab80d5829, type: 3}
      propertyPath: m_LocalPosition.z
      value: 22.046806
      objectReference: {fileID: 0}
    - target: {fileID: 4419413963564962, guid: 4c19e7fac9429a743b3a44dab80d5829, type: 3}
      propertyPath: m_LocalRotation.x
      value: -0
      objectReference: {fileID: 0}
    - target: {fileID: 4419413963564962, guid: 4c19e7fac9429a743b3a44dab80d5829, type: 3}
      propertyPath: m_LocalRotation.y
      value: -0
      objectReference: {fileID: 0}
    - target: {fileID: 4419413963564962, guid: 4c19e7fac9429a743b3a44dab80d5829, type: 3}
      propertyPath: m_LocalRotation.z
      value: -0
      objectReference: {fileID: 0}
    - target: {fileID: 4419413963564962, guid: 4c19e7fac9429a743b3a44dab80d5829, type: 3}
      propertyPath: m_LocalRotation.w
      value: 1
      objectReference: {fileID: 0}
    - target: {fileID: 4419413963564962, guid: 4c19e7fac9429a743b3a44dab80d5829, type: 3}
      propertyPath: m_RootOrder
      value: 18
      objectReference: {fileID: 0}
    m_RemovedComponents: []
  m_SourcePrefab: {fileID: 100100000, guid: 4c19e7fac9429a743b3a44dab80d5829, type: 3}
--- !u!1001 &1070754104
PrefabInstance:
  m_ObjectHideFlags: 0
  serializedVersion: 2
  m_Modification:
    m_TransformParent: {fileID: 1503443544}
    m_Modifications:
    - target: {fileID: 1517651765418030, guid: 0a5c7fe0194741c48a466d7c6316f970, type: 3}
      propertyPath: m_Name
      value: tree_f (1)
      objectReference: {fileID: 0}
    - target: {fileID: 1517651765418030, guid: 0a5c7fe0194741c48a466d7c6316f970, type: 3}
      propertyPath: m_StaticEditorFlags
      value: 4294967295
      objectReference: {fileID: 0}
    - target: {fileID: 4503397907870518, guid: 0a5c7fe0194741c48a466d7c6316f970, type: 3}
      propertyPath: m_LocalPosition.x
      value: 59.615654
      objectReference: {fileID: 0}
    - target: {fileID: 4503397907870518, guid: 0a5c7fe0194741c48a466d7c6316f970, type: 3}
      propertyPath: m_LocalPosition.y
      value: 4.7656107
      objectReference: {fileID: 0}
    - target: {fileID: 4503397907870518, guid: 0a5c7fe0194741c48a466d7c6316f970, type: 3}
      propertyPath: m_LocalPosition.z
      value: 67.36558
      objectReference: {fileID: 0}
    - target: {fileID: 4503397907870518, guid: 0a5c7fe0194741c48a466d7c6316f970, type: 3}
      propertyPath: m_LocalRotation.x
      value: -0
      objectReference: {fileID: 0}
    - target: {fileID: 4503397907870518, guid: 0a5c7fe0194741c48a466d7c6316f970, type: 3}
      propertyPath: m_LocalRotation.y
      value: -0
      objectReference: {fileID: 0}
    - target: {fileID: 4503397907870518, guid: 0a5c7fe0194741c48a466d7c6316f970, type: 3}
      propertyPath: m_LocalRotation.z
      value: -0
      objectReference: {fileID: 0}
    - target: {fileID: 4503397907870518, guid: 0a5c7fe0194741c48a466d7c6316f970, type: 3}
      propertyPath: m_LocalRotation.w
      value: 1
      objectReference: {fileID: 0}
    - target: {fileID: 4503397907870518, guid: 0a5c7fe0194741c48a466d7c6316f970, type: 3}
      propertyPath: m_RootOrder
      value: 11
      objectReference: {fileID: 0}
    m_RemovedComponents: []
  m_SourcePrefab: {fileID: 100100000, guid: 0a5c7fe0194741c48a466d7c6316f970, type: 3}
--- !u!4 &1140377889 stripped
Transform:
  m_CorrespondingSourceObject: {fileID: 4503397907870518, guid: 0a5c7fe0194741c48a466d7c6316f970, type: 3}
  m_PrefabInstance: {fileID: 1070754104}
  m_PrefabAsset: {fileID: 0}
--- !u!1001 &1249114849
PrefabInstance:
  m_ObjectHideFlags: 0
  serializedVersion: 2
  m_Modification:
    m_TransformParent: {fileID: 1503443544}
    m_Modifications:
    - target: {fileID: 1275040304669678, guid: cc73d15ad10bfb04bb62d40a852cec0a, type: 3}
      propertyPath: m_StaticEditorFlags
      value: 4294967295
      objectReference: {fileID: 0}
    - target: {fileID: 4710095859576006, guid: cc73d15ad10bfb04bb62d40a852cec0a, type: 3}
      propertyPath: m_LocalPosition.x
      value: 18.82188
      objectReference: {fileID: 0}
    - target: {fileID: 4710095859576006, guid: cc73d15ad10bfb04bb62d40a852cec0a, type: 3}
      propertyPath: m_LocalPosition.y
      value: 4.704388
      objectReference: {fileID: 0}
    - target: {fileID: 4710095859576006, guid: cc73d15ad10bfb04bb62d40a852cec0a, type: 3}
      propertyPath: m_LocalPosition.z
      value: 25.208096
      objectReference: {fileID: 0}
    - target: {fileID: 4710095859576006, guid: cc73d15ad10bfb04bb62d40a852cec0a, type: 3}
      propertyPath: m_LocalRotation.x
      value: -0
      objectReference: {fileID: 0}
    - target: {fileID: 4710095859576006, guid: cc73d15ad10bfb04bb62d40a852cec0a, type: 3}
      propertyPath: m_LocalRotation.y
      value: -0
      objectReference: {fileID: 0}
    - target: {fileID: 4710095859576006, guid: cc73d15ad10bfb04bb62d40a852cec0a, type: 3}
      propertyPath: m_LocalRotation.z
      value: -0
      objectReference: {fileID: 0}
    - target: {fileID: 4710095859576006, guid: cc73d15ad10bfb04bb62d40a852cec0a, type: 3}
      propertyPath: m_LocalRotation.w
      value: 1
      objectReference: {fileID: 0}
    - target: {fileID: 4710095859576006, guid: cc73d15ad10bfb04bb62d40a852cec0a, type: 3}
      propertyPath: m_RootOrder
      value: 5
      objectReference: {fileID: 0}
    m_RemovedComponents: []
  m_SourcePrefab: {fileID: 100100000, guid: cc73d15ad10bfb04bb62d40a852cec0a, type: 3}
--- !u!4 &1316373536 stripped
Transform:
  m_CorrespondingSourceObject: {fileID: 4883135237462646, guid: 2dec588a435420f4589914de23d120f5, type: 3}
  m_PrefabInstance: {fileID: 1602460166}
  m_PrefabAsset: {fileID: 0}
--- !u!1001 &1397118640
PrefabInstance:
  m_ObjectHideFlags: 0
  serializedVersion: 2
  m_Modification:
    m_TransformParent: {fileID: 1503443544}
    m_Modifications:
    - target: {fileID: 1615244783788446, guid: 2dec588a435420f4589914de23d120f5, type: 3}
      propertyPath: m_Name
      value: tree_c (1)
      objectReference: {fileID: 0}
    - target: {fileID: 1615244783788446, guid: 2dec588a435420f4589914de23d120f5, type: 3}
      propertyPath: m_StaticEditorFlags
      value: 4294967295
      objectReference: {fileID: 0}
    - target: {fileID: 4883135237462646, guid: 2dec588a435420f4589914de23d120f5, type: 3}
      propertyPath: m_LocalPosition.x
      value: 81.82484
      objectReference: {fileID: 0}
    - target: {fileID: 4883135237462646, guid: 2dec588a435420f4589914de23d120f5, type: 3}
      propertyPath: m_LocalPosition.y
      value: 4.2781296
      objectReference: {fileID: 0}
    - target: {fileID: 4883135237462646, guid: 2dec588a435420f4589914de23d120f5, type: 3}
      propertyPath: m_LocalPosition.z
      value: 54.853012
      objectReference: {fileID: 0}
    - target: {fileID: 4883135237462646, guid: 2dec588a435420f4589914de23d120f5, type: 3}
      propertyPath: m_LocalRotation.x
      value: -0
      objectReference: {fileID: 0}
    - target: {fileID: 4883135237462646, guid: 2dec588a435420f4589914de23d120f5, type: 3}
      propertyPath: m_LocalRotation.y
      value: -0
      objectReference: {fileID: 0}
    - target: {fileID: 4883135237462646, guid: 2dec588a435420f4589914de23d120f5, type: 3}
      propertyPath: m_LocalRotation.z
      value: -0
      objectReference: {fileID: 0}
    - target: {fileID: 4883135237462646, guid: 2dec588a435420f4589914de23d120f5, type: 3}
      propertyPath: m_LocalRotation.w
      value: 1
      objectReference: {fileID: 0}
    - target: {fileID: 4883135237462646, guid: 2dec588a435420f4589914de23d120f5, type: 3}
      propertyPath: m_RootOrder
      value: 10
      objectReference: {fileID: 0}
    m_RemovedComponents: []
  m_SourcePrefab: {fileID: 100100000, guid: 2dec588a435420f4589914de23d120f5, type: 3}
--- !u!1001 &1460293348
PrefabInstance:
  m_ObjectHideFlags: 0
  serializedVersion: 2
  m_Modification:
    m_TransformParent: {fileID: 1503443544}
    m_Modifications:
    - target: {fileID: 1517651765418030, guid: 0a5c7fe0194741c48a466d7c6316f970, type: 3}
      propertyPath: m_StaticEditorFlags
      value: 4294967295
      objectReference: {fileID: 0}
    - target: {fileID: 4503397907870518, guid: 0a5c7fe0194741c48a466d7c6316f970, type: 3}
      propertyPath: m_LocalPosition.x
      value: 25.525805
      objectReference: {fileID: 0}
    - target: {fileID: 4503397907870518, guid: 0a5c7fe0194741c48a466d7c6316f970, type: 3}
      propertyPath: m_LocalPosition.y
      value: 5.5860705
      objectReference: {fileID: 0}
    - target: {fileID: 4503397907870518, guid: 0a5c7fe0194741c48a466d7c6316f970, type: 3}
      propertyPath: m_LocalPosition.z
      value: 55.416965
      objectReference: {fileID: 0}
    - target: {fileID: 4503397907870518, guid: 0a5c7fe0194741c48a466d7c6316f970, type: 3}
      propertyPath: m_LocalRotation.x
      value: -0
      objectReference: {fileID: 0}
    - target: {fileID: 4503397907870518, guid: 0a5c7fe0194741c48a466d7c6316f970, type: 3}
      propertyPath: m_LocalRotation.y
      value: -0
      objectReference: {fileID: 0}
    - target: {fileID: 4503397907870518, guid: 0a5c7fe0194741c48a466d7c6316f970, type: 3}
      propertyPath: m_LocalRotation.z
      value: -0
      objectReference: {fileID: 0}
    - target: {fileID: 4503397907870518, guid: 0a5c7fe0194741c48a466d7c6316f970, type: 3}
      propertyPath: m_LocalRotation.w
      value: 1
      objectReference: {fileID: 0}
    - target: {fileID: 4503397907870518, guid: 0a5c7fe0194741c48a466d7c6316f970, type: 3}
      propertyPath: m_RootOrder
      value: 19
      objectReference: {fileID: 0}
    m_RemovedComponents: []
  m_SourcePrefab: {fileID: 100100000, guid: 0a5c7fe0194741c48a466d7c6316f970, type: 3}
--- !u!1 &1503443543
GameObject:
  m_ObjectHideFlags: 0
  m_CorrespondingSourceObject: {fileID: 0}
  m_PrefabInstance: {fileID: 0}
  m_PrefabAsset: {fileID: 0}
  serializedVersion: 6
  m_Component:
  - component: {fileID: 1503443544}
  m_Layer: 0
  m_Name: Trees
  m_TagString: Untagged
  m_Icon: {fileID: 0}
  m_NavMeshLayer: 0
  m_StaticEditorFlags: 4294967295
  m_IsActive: 1
--- !u!4 &1503443544
Transform:
  m_ObjectHideFlags: 0
  m_CorrespondingSourceObject: {fileID: 0}
  m_PrefabInstance: {fileID: 0}
  m_PrefabAsset: {fileID: 0}
  m_GameObject: {fileID: 1503443543}
  m_LocalRotation: {x: 0, y: 0, z: 0, w: 1}
  m_LocalPosition: {x: 0, y: 0, z: 0}
  m_LocalScale: {x: 1, y: 1, z: 1}
  m_Children:
  - {fileID: 1755960868}
  - {fileID: 347847043}
  - {fileID: 328281616}
  - {fileID: 1995474204}
  - {fileID: 1630780328}
  - {fileID: 1605042378}
  - {fileID: 986442238}
  - {fileID: 191071999}
  - {fileID: 240520724}
  - {fileID: 760810401}
  - {fileID: 497387407}
  - {fileID: 1140377889}
  - {fileID: 1615363227}
  - {fileID: 253225832}
  - {fileID: 774768043}
  - {fileID: 864162360}
  - {fileID: 1623322172}
  - {fileID: 407317502}
  - {fileID: 603445472}
  - {fileID: 1838665959}
  - {fileID: 289220725}
  - {fileID: 1768578087}
  - {fileID: 1316373536}
  - {fileID: 165559856}
  - {fileID: 559409811}
  m_Father: {fileID: 0}
  m_RootOrder: 6
  m_LocalEulerAnglesHint: {x: 0, y: 0, z: 0}
--- !u!1001 &1602460166
PrefabInstance:
  m_ObjectHideFlags: 0
  serializedVersion: 2
  m_Modification:
    m_TransformParent: {fileID: 1503443544}
    m_Modifications:
    - target: {fileID: 1615244783788446, guid: 2dec588a435420f4589914de23d120f5, type: 3}
      propertyPath: m_StaticEditorFlags
      value: 4294967295
      objectReference: {fileID: 0}
    - target: {fileID: 4883135237462646, guid: 2dec588a435420f4589914de23d120f5, type: 3}
      propertyPath: m_LocalPosition.x
      value: 70.543816
      objectReference: {fileID: 0}
    - target: {fileID: 4883135237462646, guid: 2dec588a435420f4589914de23d120f5, type: 3}
      propertyPath: m_LocalPosition.y
      value: 3.951427
      objectReference: {fileID: 0}
    - target: {fileID: 4883135237462646, guid: 2dec588a435420f4589914de23d120f5, type: 3}
      propertyPath: m_LocalPosition.z
      value: 44.36076
      objectReference: {fileID: 0}
    - target: {fileID: 4883135237462646, guid: 2dec588a435420f4589914de23d120f5, type: 3}
      propertyPath: m_LocalRotation.x
      value: -0
      objectReference: {fileID: 0}
    - target: {fileID: 4883135237462646, guid: 2dec588a435420f4589914de23d120f5, type: 3}
      propertyPath: m_LocalRotation.y
      value: -0
      objectReference: {fileID: 0}
    - target: {fileID: 4883135237462646, guid: 2dec588a435420f4589914de23d120f5, type: 3}
      propertyPath: m_LocalRotation.z
      value: -0
      objectReference: {fileID: 0}
    - target: {fileID: 4883135237462646, guid: 2dec588a435420f4589914de23d120f5, type: 3}
      propertyPath: m_LocalRotation.w
      value: 1
      objectReference: {fileID: 0}
    - target: {fileID: 4883135237462646, guid: 2dec588a435420f4589914de23d120f5, type: 3}
      propertyPath: m_RootOrder
      value: 22
      objectReference: {fileID: 0}
    m_RemovedComponents: []
  m_SourcePrefab: {fileID: 100100000, guid: 2dec588a435420f4589914de23d120f5, type: 3}
--- !u!4 &1605042378 stripped
Transform:
  m_CorrespondingSourceObject: {fileID: 4710095859576006, guid: cc73d15ad10bfb04bb62d40a852cec0a, type: 3}
  m_PrefabInstance: {fileID: 1249114849}
  m_PrefabAsset: {fileID: 0}
--- !u!4 &1615363227 stripped
Transform:
  m_CorrespondingSourceObject: {fileID: 4592602840840914, guid: f8244925291293049a4f9db693e9e395, type: 3}
  m_PrefabInstance: {fileID: 586428439}
  m_PrefabAsset: {fileID: 0}
--- !u!4 &1623322172 stripped
Transform:
  m_CorrespondingSourceObject: {fileID: 4370548439093532, guid: 84e38d7f6eafbd44c94f15c42908c48c, type: 3}
  m_PrefabInstance: {fileID: 1733254807}
  m_PrefabAsset: {fileID: 0}
--- !u!4 &1630780328 stripped
Transform:
  m_CorrespondingSourceObject: {fileID: 4388296538832582, guid: 234f6fb2a7141ac4babed013ec52d294, type: 3}
  m_PrefabInstance: {fileID: 691259430}
  m_PrefabAsset: {fileID: 0}
--- !u!1001 &1647792475
PrefabInstance:
  m_ObjectHideFlags: 0
  serializedVersion: 2
  m_Modification:
    m_TransformParent: {fileID: 1503443544}
    m_Modifications:
    - target: {fileID: 1271463073934860, guid: c8241c5696cbec14bae8a38a0489c6ef, type: 3}
      propertyPath: m_StaticEditorFlags
      value: 4294967295
      objectReference: {fileID: 0}
    - target: {fileID: 4405990418711390, guid: c8241c5696cbec14bae8a38a0489c6ef, type: 3}
      propertyPath: m_LocalPosition.x
      value: 31.92
      objectReference: {fileID: 0}
    - target: {fileID: 4405990418711390, guid: c8241c5696cbec14bae8a38a0489c6ef, type: 3}
      propertyPath: m_LocalPosition.y
      value: 4.4140267
      objectReference: {fileID: 0}
    - target: {fileID: 4405990418711390, guid: c8241c5696cbec14bae8a38a0489c6ef, type: 3}
      propertyPath: m_LocalPosition.z
      value: 30.1
      objectReference: {fileID: 0}
    - target: {fileID: 4405990418711390, guid: c8241c5696cbec14bae8a38a0489c6ef, type: 3}
      propertyPath: m_LocalRotation.x
      value: -0
      objectReference: {fileID: 0}
    - target: {fileID: 4405990418711390, guid: c8241c5696cbec14bae8a38a0489c6ef, type: 3}
      propertyPath: m_LocalRotation.y
      value: -0
      objectReference: {fileID: 0}
    - target: {fileID: 4405990418711390, guid: c8241c5696cbec14bae8a38a0489c6ef, type: 3}
      propertyPath: m_LocalRotation.z
      value: -0
      objectReference: {fileID: 0}
    - target: {fileID: 4405990418711390, guid: c8241c5696cbec14bae8a38a0489c6ef, type: 3}
      propertyPath: m_LocalRotation.w
      value: 1
      objectReference: {fileID: 0}
    - target: {fileID: 4405990418711390, guid: c8241c5696cbec14bae8a38a0489c6ef, type: 3}
      propertyPath: m_RootOrder
      value: 17
      objectReference: {fileID: 0}
    m_RemovedComponents: []
  m_SourcePrefab: {fileID: 100100000, guid: c8241c5696cbec14bae8a38a0489c6ef, type: 3}
--- !u!1001 &1733254807
PrefabInstance:
  m_ObjectHideFlags: 0
  serializedVersion: 2
  m_Modification:
    m_TransformParent: {fileID: 1503443544}
    m_Modifications:
    - target: {fileID: 1190028872660160, guid: 84e38d7f6eafbd44c94f15c42908c48c, type: 3}
      propertyPath: m_StaticEditorFlags
      value: 4294967295
      objectReference: {fileID: 0}
    - target: {fileID: 4370548439093532, guid: 84e38d7f6eafbd44c94f15c42908c48c, type: 3}
      propertyPath: m_LocalPosition.x
      value: 18.38
      objectReference: {fileID: 0}
    - target: {fileID: 4370548439093532, guid: 84e38d7f6eafbd44c94f15c42908c48c, type: 3}
      propertyPath: m_LocalPosition.y
      value: 3.7
      objectReference: {fileID: 0}
    - target: {fileID: 4370548439093532, guid: 84e38d7f6eafbd44c94f15c42908c48c, type: 3}
      propertyPath: m_LocalPosition.z
      value: 39.18
      objectReference: {fileID: 0}
    - target: {fileID: 4370548439093532, guid: 84e38d7f6eafbd44c94f15c42908c48c, type: 3}
      propertyPath: m_LocalRotation.x
      value: -0
      objectReference: {fileID: 0}
    - target: {fileID: 4370548439093532, guid: 84e38d7f6eafbd44c94f15c42908c48c, type: 3}
      propertyPath: m_LocalRotation.y
      value: -0
      objectReference: {fileID: 0}
    - target: {fileID: 4370548439093532, guid: 84e38d7f6eafbd44c94f15c42908c48c, type: 3}
      propertyPath: m_LocalRotation.z
      value: -0
      objectReference: {fileID: 0}
    - target: {fileID: 4370548439093532, guid: 84e38d7f6eafbd44c94f15c42908c48c, type: 3}
      propertyPath: m_LocalRotation.w
      value: 1
      objectReference: {fileID: 0}
    - target: {fileID: 4370548439093532, guid: 84e38d7f6eafbd44c94f15c42908c48c, type: 3}
      propertyPath: m_RootOrder
      value: 16
      objectReference: {fileID: 0}
    m_RemovedComponents: []
  m_SourcePrefab: {fileID: 100100000, guid: 84e38d7f6eafbd44c94f15c42908c48c, type: 3}
--- !u!4 &1755960868 stripped
Transform:
  m_CorrespondingSourceObject: {fileID: 4710095859576006, guid: cc73d15ad10bfb04bb62d40a852cec0a, type: 3}
  m_PrefabInstance: {fileID: 315081499}
  m_PrefabAsset: {fileID: 0}
--- !u!4 &1768578087 stripped
Transform:
  m_CorrespondingSourceObject: {fileID: 4388296538832582, guid: 234f6fb2a7141ac4babed013ec52d294, type: 3}
  m_PrefabInstance: {fileID: 448177646}
  m_PrefabAsset: {fileID: 0}
--- !u!4 &1838665959 stripped
Transform:
  m_CorrespondingSourceObject: {fileID: 4503397907870518, guid: 0a5c7fe0194741c48a466d7c6316f970, type: 3}
  m_PrefabInstance: {fileID: 1460293348}
  m_PrefabAsset: {fileID: 0}
--- !u!1001 &1865144493
PrefabInstance:
  m_ObjectHideFlags: 0
  serializedVersion: 2
  m_Modification:
    m_TransformParent: {fileID: 1503443544}
    m_Modifications:
    - target: {fileID: 1190028872660160, guid: 84e38d7f6eafbd44c94f15c42908c48c, type: 3}
      propertyPath: m_Name
      value: tree_k (1)
      objectReference: {fileID: 0}
    - target: {fileID: 1190028872660160, guid: 84e38d7f6eafbd44c94f15c42908c48c, type: 3}
      propertyPath: m_StaticEditorFlags
      value: 4294967295
      objectReference: {fileID: 0}
    - target: {fileID: 4370548439093532, guid: 84e38d7f6eafbd44c94f15c42908c48c, type: 3}
      propertyPath: m_LocalPosition.x
      value: 36.97
      objectReference: {fileID: 0}
    - target: {fileID: 4370548439093532, guid: 84e38d7f6eafbd44c94f15c42908c48c, type: 3}
      propertyPath: m_LocalPosition.y
      value: 5.4571657
      objectReference: {fileID: 0}
    - target: {fileID: 4370548439093532, guid: 84e38d7f6eafbd44c94f15c42908c48c, type: 3}
      propertyPath: m_LocalPosition.z
      value: 68.46
      objectReference: {fileID: 0}
    - target: {fileID: 4370548439093532, guid: 84e38d7f6eafbd44c94f15c42908c48c, type: 3}
      propertyPath: m_LocalRotation.x
      value: -0
      objectReference: {fileID: 0}
    - target: {fileID: 4370548439093532, guid: 84e38d7f6eafbd44c94f15c42908c48c, type: 3}
      propertyPath: m_LocalRotation.y
      value: -0
      objectReference: {fileID: 0}
    - target: {fileID: 4370548439093532, guid: 84e38d7f6eafbd44c94f15c42908c48c, type: 3}
      propertyPath: m_LocalRotation.z
      value: -0
      objectReference: {fileID: 0}
    - target: {fileID: 4370548439093532, guid: 84e38d7f6eafbd44c94f15c42908c48c, type: 3}
      propertyPath: m_LocalRotation.w
      value: 1
      objectReference: {fileID: 0}
    - target: {fileID: 4370548439093532, guid: 84e38d7f6eafbd44c94f15c42908c48c, type: 3}
      propertyPath: m_RootOrder
      value: 6
      objectReference: {fileID: 0}
    m_RemovedComponents: []
  m_SourcePrefab: {fileID: 100100000, guid: 84e38d7f6eafbd44c94f15c42908c48c, type: 3}
--- !u!21 &1865234462
Material:
  serializedVersion: 6
  m_ObjectHideFlags: 0
  m_CorrespondingSourceObject: {fileID: 0}
  m_PrefabInstance: {fileID: 0}
  m_PrefabAsset: {fileID: 0}
  m_Name: Sprites/Default
  m_Shader: {fileID: 10753, guid: 0000000000000000f000000000000000, type: 0}
  m_ShaderKeywords: 
  m_LightmapFlags: 4
  m_EnableInstancingVariants: 0
  m_DoubleSidedGI: 0
  m_CustomRenderQueue: -1
  stringTagMap: {}
  disabledShaderPasses: []
  m_SavedProperties:
    serializedVersion: 3
    m_TexEnvs:
    - _AlphaTex:
        m_Texture: {fileID: 0}
        m_Scale: {x: 1, y: 1}
        m_Offset: {x: 0, y: 0}
    - _MainTex:
        m_Texture: {fileID: 0}
        m_Scale: {x: 1, y: 1}
        m_Offset: {x: 0, y: 0}
    m_Floats:
    - PixelSnap: 0
    - _EnableExternalAlpha: 0
    m_Colors:
    - _Color: {r: 1, g: 1, b: 1, a: 1}
    - _Flip: {r: 1, g: 1, b: 1, a: 1}
    - _RendererColor: {r: 1, g: 1, b: 1, a: 1}
  m_BuildTextureStacks: []
--- !u!1001 &1894974840
PrefabInstance:
  m_ObjectHideFlags: 0
  serializedVersion: 2
  m_Modification:
    m_TransformParent: {fileID: 1503443544}
    m_Modifications:
    - target: {fileID: 1271463073934860, guid: c8241c5696cbec14bae8a38a0489c6ef, type: 3}
      propertyPath: m_Name
      value: tree_i (2)
      objectReference: {fileID: 0}
    - target: {fileID: 1271463073934860, guid: c8241c5696cbec14bae8a38a0489c6ef, type: 3}
      propertyPath: m_StaticEditorFlags
      value: 4294967295
      objectReference: {fileID: 0}
    - target: {fileID: 4405990418711390, guid: c8241c5696cbec14bae8a38a0489c6ef, type: 3}
      propertyPath: m_LocalPosition.x
      value: 5.5694914
      objectReference: {fileID: 0}
    - target: {fileID: 4405990418711390, guid: c8241c5696cbec14bae8a38a0489c6ef, type: 3}
      propertyPath: m_LocalPosition.y
      value: 4.3745613
      objectReference: {fileID: 0}
    - target: {fileID: 4405990418711390, guid: c8241c5696cbec14bae8a38a0489c6ef, type: 3}
      propertyPath: m_LocalPosition.z
      value: 11.891592
      objectReference: {fileID: 0}
    - target: {fileID: 4405990418711390, guid: c8241c5696cbec14bae8a38a0489c6ef, type: 3}
      propertyPath: m_LocalRotation.x
      value: -0
      objectReference: {fileID: 0}
    - target: {fileID: 4405990418711390, guid: c8241c5696cbec14bae8a38a0489c6ef, type: 3}
      propertyPath: m_LocalRotation.y
      value: -0
      objectReference: {fileID: 0}
    - target: {fileID: 4405990418711390, guid: c8241c5696cbec14bae8a38a0489c6ef, type: 3}
      propertyPath: m_LocalRotation.z
      value: -0
      objectReference: {fileID: 0}
    - target: {fileID: 4405990418711390, guid: c8241c5696cbec14bae8a38a0489c6ef, type: 3}
      propertyPath: m_LocalRotation.w
      value: 1
      objectReference: {fileID: 0}
    - target: {fileID: 4405990418711390, guid: c8241c5696cbec14bae8a38a0489c6ef, type: 3}
      propertyPath: m_RootOrder
      value: 2
      objectReference: {fileID: 0}
    m_RemovedComponents: []
  m_SourcePrefab: {fileID: 100100000, guid: c8241c5696cbec14bae8a38a0489c6ef, type: 3}
--- !u!1001 &1973638980
PrefabInstance:
  m_ObjectHideFlags: 0
  serializedVersion: 2
  m_Modification:
    m_TransformParent: {fileID: 1503443544}
    m_Modifications:
    - target: {fileID: 1127789175704916, guid: 234f6fb2a7141ac4babed013ec52d294, type: 3}
      propertyPath: m_StaticEditorFlags
      value: 4294967295
      objectReference: {fileID: 0}
    - target: {fileID: 4388296538832582, guid: 234f6fb2a7141ac4babed013ec52d294, type: 3}
      propertyPath: m_LocalPosition.x
      value: 54.87463
      objectReference: {fileID: 0}
    - target: {fileID: 4388296538832582, guid: 234f6fb2a7141ac4babed013ec52d294, type: 3}
      propertyPath: m_LocalPosition.y
      value: 5.289304
      objectReference: {fileID: 0}
    - target: {fileID: 4388296538832582, guid: 234f6fb2a7141ac4babed013ec52d294, type: 3}
      propertyPath: m_LocalPosition.z
      value: 34.0279
      objectReference: {fileID: 0}
    - target: {fileID: 4388296538832582, guid: 234f6fb2a7141ac4babed013ec52d294, type: 3}
      propertyPath: m_LocalRotation.x
      value: -0
      objectReference: {fileID: 0}
    - target: {fileID: 4388296538832582, guid: 234f6fb2a7141ac4babed013ec52d294, type: 3}
      propertyPath: m_LocalRotation.y
      value: -0
      objectReference: {fileID: 0}
    - target: {fileID: 4388296538832582, guid: 234f6fb2a7141ac4babed013ec52d294, type: 3}
      propertyPath: m_LocalRotation.z
      value: -0
      objectReference: {fileID: 0}
    - target: {fileID: 4388296538832582, guid: 234f6fb2a7141ac4babed013ec52d294, type: 3}
      propertyPath: m_LocalRotation.w
      value: 1
      objectReference: {fileID: 0}
    - target: {fileID: 4388296538832582, guid: 234f6fb2a7141ac4babed013ec52d294, type: 3}
      propertyPath: m_RootOrder
      value: 23
      objectReference: {fileID: 0}
    m_RemovedComponents: []
  m_SourcePrefab: {fileID: 100100000, guid: 234f6fb2a7141ac4babed013ec52d294, type: 3}
--- !u!4 &1995474204 stripped
Transform:
  m_CorrespondingSourceObject: {fileID: 4710095859576006, guid: cc73d15ad10bfb04bb62d40a852cec0a, type: 3}
  m_PrefabInstance: {fileID: 1995741801}
  m_PrefabAsset: {fileID: 0}
--- !u!1001 &1995741801
PrefabInstance:
  m_ObjectHideFlags: 0
  serializedVersion: 2
  m_Modification:
    m_TransformParent: {fileID: 1503443544}
    m_Modifications:
    - target: {fileID: 1275040304669678, guid: cc73d15ad10bfb04bb62d40a852cec0a, type: 3}
      propertyPath: m_Name
      value: tree_h (1)
      objectReference: {fileID: 0}
    - target: {fileID: 1275040304669678, guid: cc73d15ad10bfb04bb62d40a852cec0a, type: 3}
      propertyPath: m_StaticEditorFlags
      value: 4294967295
      objectReference: {fileID: 0}
    - target: {fileID: 4710095859576006, guid: cc73d15ad10bfb04bb62d40a852cec0a, type: 3}
      propertyPath: m_LocalPosition.x
      value: 50.20718
      objectReference: {fileID: 0}
    - target: {fileID: 4710095859576006, guid: cc73d15ad10bfb04bb62d40a852cec0a, type: 3}
      propertyPath: m_LocalPosition.y
      value: 6.2500763
      objectReference: {fileID: 0}
    - target: {fileID: 4710095859576006, guid: cc73d15ad10bfb04bb62d40a852cec0a, type: 3}
      propertyPath: m_LocalPosition.z
      value: 23.534357
      objectReference: {fileID: 0}
    - target: {fileID: 4710095859576006, guid: cc73d15ad10bfb04bb62d40a852cec0a, type: 3}
      propertyPath: m_LocalRotation.x
      value: -0
      objectReference: {fileID: 0}
    - target: {fileID: 4710095859576006, guid: cc73d15ad10bfb04bb62d40a852cec0a, type: 3}
      propertyPath: m_LocalRotation.y
      value: -0
      objectReference: {fileID: 0}
    - target: {fileID: 4710095859576006, guid: cc73d15ad10bfb04bb62d40a852cec0a, type: 3}
      propertyPath: m_LocalRotation.z
      value: -0
      objectReference: {fileID: 0}
    - target: {fileID: 4710095859576006, guid: cc73d15ad10bfb04bb62d40a852cec0a, type: 3}
      propertyPath: m_LocalRotation.w
      value: 1
      objectReference: {fileID: 0}
    - target: {fileID: 4710095859576006, guid: cc73d15ad10bfb04bb62d40a852cec0a, type: 3}
      propertyPath: m_RootOrder
      value: 3
      objectReference: {fileID: 0}
    m_RemovedComponents: []
  m_SourcePrefab: {fileID: 100100000, guid: cc73d15ad10bfb04bb62d40a852cec0a, type: 3}
--- !u!1001 &2047937415
PrefabInstance:
  m_ObjectHideFlags: 0
  serializedVersion: 2
  m_Modification:
    m_TransformParent: {fileID: 1503443544}
    m_Modifications:
    - target: {fileID: 1127789175704916, guid: 234f6fb2a7141ac4babed013ec52d294, type: 3}
      propertyPath: m_Name
      value: tree_d (2)
      objectReference: {fileID: 0}
    - target: {fileID: 1127789175704916, guid: 234f6fb2a7141ac4babed013ec52d294, type: 3}
      propertyPath: m_StaticEditorFlags
      value: 4294967295
      objectReference: {fileID: 0}
    - target: {fileID: 4388296538832582, guid: 234f6fb2a7141ac4babed013ec52d294, type: 3}
      propertyPath: m_LocalPosition.x
      value: 14.97
      objectReference: {fileID: 0}
    - target: {fileID: 4388296538832582, guid: 234f6fb2a7141ac4babed013ec52d294, type: 3}
      propertyPath: m_LocalPosition.y
      value: 5.625038
      objectReference: {fileID: 0}
    - target: {fileID: 4388296538832582, guid: 234f6fb2a7141ac4babed013ec52d294, type: 3}
      propertyPath: m_LocalPosition.z
      value: 52.46
      objectReference: {fileID: 0}
    - target: {fileID: 4388296538832582, guid: 234f6fb2a7141ac4babed013ec52d294, type: 3}
      propertyPath: m_LocalRotation.x
      value: -0
      objectReference: {fileID: 0}
    - target: {fileID: 4388296538832582, guid: 234f6fb2a7141ac4babed013ec52d294, type: 3}
      propertyPath: m_LocalRotation.y
      value: -0
      objectReference: {fileID: 0}
    - target: {fileID: 4388296538832582, guid: 234f6fb2a7141ac4babed013ec52d294, type: 3}
      propertyPath: m_LocalRotation.z
      value: -0
      objectReference: {fileID: 0}
    - target: {fileID: 4388296538832582, guid: 234f6fb2a7141ac4babed013ec52d294, type: 3}
      propertyPath: m_LocalRotation.w
      value: 1
      objectReference: {fileID: 0}
    - target: {fileID: 4388296538832582, guid: 234f6fb2a7141ac4babed013ec52d294, type: 3}
      propertyPath: m_RootOrder
      value: 13
      objectReference: {fileID: 0}
    m_RemovedComponents: []
  m_SourcePrefab: {fileID: 100100000, guid: 234f6fb2a7141ac4babed013ec52d294, type: 3}
